\relax 
\providecommand\hyper@newdestlabel[2]{}
\citation{geolinkeddata1}
\citation{geolinkeddata2}
\@writefile{toc}{\contentsline {chapter}{\numberline {2}Enabling Technologies}{7}{chapter.20}}
\@writefile{lof}{\addvspace {10\p@ }}
\@writefile{lot}{\addvspace {10\p@ }}
\newlabel{chap:enabling_technologies}{{2}{7}{Enabling Technologies}{chapter.20}{}}
\citation{geolinkeddata3}
\@writefile{toc}{\contentsline {section}{\numberline {2.1}Linked Data}{9}{section.21}}
\@writefile{toc}{\contentsline {subsection}{\numberline {2.1.1}RDF}{9}{subsection.23}}
\@writefile{lol}{\contentsline {lstlisting}{\numberline {2.1}RDF/XML document example}{9}{lstlisting.24}}
\@writefile{toc}{\contentsline {subsection}{\numberline {2.1.2}SPARQL}{10}{subsection.46}}
\newlabel{lst:sparql}{{2.2}{10}{SPARQL query example}{lstlisting.49}{}}
\@writefile{lol}{\contentsline {lstlisting}{\numberline {2.2}SPARQL query example}{10}{lstlisting.49}}
\@writefile{toc}{\contentsline {subsection}{\numberline {2.1.3}Geo Linked Data}{11}{subsection.59}}
\newlabel{lst:sparqlq}{{2.3}{11}{geoSPARQL query example}{lstlisting.63}{}}
\@writefile{lol}{\contentsline {lstlisting}{\numberline {2.3}geoSPARQL query example}{11}{lstlisting.63}}
\citation{webComponents}
\@writefile{toc}{\contentsline {section}{\numberline {2.2}Web Components}{12}{section.74}}
\newlabel{sec:webComponents}{{2.2}{12}{Web Components}{section.74}{}}
\@writefile{toc}{\contentsline {subsection}{\numberline {2.2.1}Custom HTML Elements}{12}{subsection.75}}
\@writefile{toc}{\contentsline {subsection}{\numberline {2.2.2}HTML Imports}{12}{subsection.76}}
\@writefile{toc}{\contentsline {subsection}{\numberline {2.2.3}Templates}{12}{subsection.77}}
\@writefile{toc}{\contentsline {subsection}{\numberline {2.2.4}Shadow DOM}{13}{subsection.78}}
\@writefile{toc}{\contentsline {section}{\numberline {2.3}Polymer}{13}{section.79}}
\@writefile{toc}{\contentsline {section}{\numberline {2.4}Client-side web technologies}{14}{section.81}}
\@writefile{toc}{\contentsline {subsection}{\numberline {2.4.1}Bootstrap}{14}{subsection.82}}
\@writefile{lof}{\contentsline {figure}{\numberline {2.1}{\ignorespaces Basic HTML Table\relax }}{14}{figure.caption.86}}
\providecommand*\caption@xref[2]{\@setref\relax\@undefined{#1}}
\newlabel{fig:basicTable}{{2.1}{14}{Basic HTML Table\relax }{figure.caption.86}{}}
\@writefile{lof}{\contentsline {figure}{\numberline {2.2}{\ignorespaces adminLTE template\relax }}{15}{figure.caption.88}}
\newlabel{fig:adminLTE}{{2.2}{15}{adminLTE template\relax }{figure.caption.88}{}}
\@writefile{lof}{\contentsline {figure}{\numberline {2.3}{\ignorespaces Premade Charts\relax }}{16}{figure.caption.91}}
\newlabel{fig:adminLTE}{{2.3}{16}{Premade Charts\relax }{figure.caption.91}{}}
\@writefile{toc}{\contentsline {subsection}{\numberline {2.4.2}Leaflet}{17}{subsection.92}}
\@writefile{lof}{\contentsline {figure}{\numberline {2.4}{\ignorespaces Leaflet Marker and pop-up\relax }}{17}{figure.caption.94}}
\newlabel{fig:leaflet}{{2.4}{17}{Leaflet Marker and pop-up\relax }{figure.caption.94}{}}
\@writefile{lof}{\contentsline {figure}{\numberline {2.5}{\ignorespaces Leaflet GeoJSON Layer\relax }}{18}{figure.caption.95}}
\newlabel{fig:leaflet}{{2.5}{18}{Leaflet GeoJSON Layer\relax }{figure.caption.95}{}}
\newlabel{lst:geoJSONfea}{{2.4}{18}{geoJSON example}{lstlisting.96}{}}
\@writefile{lol}{\contentsline {lstlisting}{\numberline {2.4}geoJSON example}{18}{lstlisting.96}}
\newlabel{lst:styPro}{{2.5}{19}{Styling By Property Example}{lstlisting.111}{}}
\@writefile{lol}{\contentsline {lstlisting}{\numberline {2.5}Styling By Property Example}{19}{lstlisting.111}}
\newlabel{lst:popbind}{{2.6}{19}{Pop-up Binding}{lstlisting.121}{}}
\@writefile{lol}{\contentsline {lstlisting}{\numberline {2.6}Pop-up Binding}{19}{lstlisting.121}}
\@writefile{toc}{\contentsline {subsection}{\numberline {2.4.3}Crossfilter}{20}{subsection.128}}
\@writefile{toc}{\contentsline {subsection}{\numberline {2.4.4}Dc.js}{20}{subsection.130}}
\@writefile{lof}{\contentsline {figure}{\numberline {2.6}{\ignorespaces dc.js Charts\relax }}{20}{figure.caption.132}}
\newlabel{fig:dcex}{{2.6}{20}{dc.js Charts\relax }{figure.caption.132}{}}
\@writefile{toc}{\contentsline {section}{\numberline {2.5}Server-side web technologies}{21}{section.133}}
\@writefile{toc}{\contentsline {subsection}{\numberline {2.5.1}MongoDB}{21}{subsection.134}}
\newlabel{lst:onclcode}{{2.7}{22}{Map Widget onClick Code}{lstlisting.138}{}}
\@writefile{lol}{\contentsline {lstlisting}{\numberline {2.7}Map Widget onClick Code}{22}{lstlisting.138}}
\@writefile{toc}{\contentsline {subsection}{\numberline {2.5.2}Fuseki}{22}{subsection.140}}
\citation{robertobermejo}
\citation{ruben2014}
\@writefile{toc}{\contentsline {section}{\numberline {2.6}Sefarad 1.0}{23}{section.142}}
\@writefile{lof}{\contentsline {figure}{\numberline {2.7}{\ignorespaces Sefarad 1.0\relax }}{23}{figure.caption.145}}
\newlabel{fig:dc}{{2.7}{23}{Sefarad 1.0\relax }{figure.caption.145}{}}
\@writefile{toc}{\contentsline {section}{\numberline {2.7}Summary}{24}{section.146}}
\@setckpt{2-enablingtechnologies}{
\setcounter{page}{25}
\setcounter{equation}{0}
\setcounter{enumi}{0}
\setcounter{enumii}{0}
\setcounter{enumiii}{0}
\setcounter{enumiv}{0}
\setcounter{footnote}{22}
\setcounter{mpfootnote}{0}
\setcounter{part}{0}
\setcounter{chapter}{2}
\setcounter{section}{7}
\setcounter{subsection}{0}
\setcounter{subsubsection}{0}
\setcounter{paragraph}{0}
\setcounter{subparagraph}{0}
\setcounter{figure}{7}
\setcounter{table}{0}
\setcounter{parentequation}{0}
\setcounter{cor}{0}
\setcounter{thm}{0}
\setcounter{LT@tables}{0}
\setcounter{LT@chunks}{0}
\setcounter{ContinuedFloat}{0}
\setcounter{KVtest}{0}
\setcounter{subfigure}{0}
\setcounter{subfigure@save}{0}
\setcounter{lofdepth}{1}
\setcounter{subtable}{0}
\setcounter{subtable@save}{0}
\setcounter{lotdepth}{1}
\setcounter{lstnumber}{2}
\setcounter{Item}{0}
\setcounter{Hfootnote}{24}
\setcounter{bookmark@seq@number}{31}
\setcounter{lstlisting}{7}
\setcounter{section@level}{0}
}
