\relax 
\providecommand\hyper@newdestlabel[2]{}
\@writefile{toc}{\contentsline {chapter}{\numberline {3}Requirement Analysis}{19}{chapter.137}}
\@writefile{lof}{\addvspace {10\p@ }}
\@writefile{lot}{\addvspace {10\p@ }}
\newlabel{chap:requirements}{{3}{19}{Requirement Analysis}{chapter.137}{}}
\@writefile{toc}{\contentsline {section}{\numberline {3.1}Overview}{21}{section.138}}
\@writefile{toc}{\contentsline {section}{\numberline {3.2}Actors dictionary}{21}{section.139}}
\@writefile{lot}{\contentsline {table}{\numberline {3.1}{\ignorespaces Actors list\relax }}{21}{table.caption.140}}
\newlabel{tab:actores}{{3.1}{21}{Actors list\relax }{table.caption.140}{}}
\@writefile{toc}{\contentsline {section}{\numberline {3.3}Use cases}{22}{section.141}}
\@writefile{lof}{\contentsline {figure}{\numberline {3.1}{\ignorespaces Use cases UML diagram\relax }}{22}{figure.caption.142}}
\newlabel{fig:ucdiagram}{{3.1}{22}{Use cases UML diagram\relax }{figure.caption.142}{}}
\@writefile{toc}{\contentsline {subsection}{\numberline {3.3.1}Portal users use cases}{23}{subsection.143}}
\@writefile{toc}{\contentsline {subsubsection}{\numberline {3.3.1.1}Edit a SPARQL query}{24}{subsubsection.144}}
\newlabel{subsec:editsparql}{{3.3.1.1}{24}{Edit a SPARQL query}{subsubsection.144}{}}
\@writefile{lot}{\contentsline {table}{\numberline {3.2}{\ignorespaces Edit a SPARQL query\relax }}{24}{table.caption.145}}
\@writefile{toc}{\contentsline {subsubsection}{\numberline {3.3.1.2}Run a SPARQL query}{25}{subsubsection.146}}
\newlabel{subsec:runsparql}{{3.3.1.2}{25}{Run a SPARQL query}{subsubsection.146}{}}
\@writefile{lot}{\contentsline {table}{\numberline {3.3}{\ignorespaces Run a SPARQL query\relax }}{25}{table.caption.147}}
\@writefile{toc}{\contentsline {subsubsection}{\numberline {3.3.1.3}Visual display of the information}{26}{subsubsection.148}}
\newlabel{subsec:visualdisplay}{{3.3.1.3}{26}{Visual display of the information}{subsubsection.148}{}}
\@writefile{lot}{\contentsline {table}{\numberline {3.4}{\ignorespaces Visual display of the information\relax }}{26}{table.caption.149}}
\@writefile{toc}{\contentsline {subsubsection}{\numberline {3.3.1.4}Keyword search}{27}{subsubsection.150}}
\newlabel{subsec:keywordsearchuc}{{3.3.1.4}{27}{Keyword search}{subsubsection.150}{}}
\@writefile{lot}{\contentsline {table}{\numberline {3.5}{\ignorespaces Keyword search\relax }}{27}{table.caption.151}}
\@writefile{toc}{\contentsline {subsubsection}{\numberline {3.3.1.5}Faceted search}{28}{subsubsection.152}}
\newlabel{subsec:facetedsearchuc}{{3.3.1.5}{28}{Faceted search}{subsubsection.152}{}}
\@writefile{lot}{\contentsline {table}{\numberline {3.6}{\ignorespaces Faceted search\relax }}{28}{table.caption.153}}
\@writefile{toc}{\contentsline {subsubsection}{\numberline {3.3.1.6}Log-in/Log-out}{29}{subsubsection.154}}
\newlabel{subsec:loginout}{{3.3.1.6}{29}{Log-in/Log-out}{subsubsection.154}{}}
\@writefile{lot}{\contentsline {table}{\numberline {3.7}{\ignorespaces Log-in/Log-out\relax }}{29}{table.caption.155}}
\@writefile{toc}{\contentsline {subsubsection}{\numberline {3.3.1.7}Customize Sefarad}{30}{subsubsection.156}}
\newlabel{subsec:customize}{{3.3.1.7}{30}{Customize Sefarad}{subsubsection.156}{}}
\@writefile{lot}{\contentsline {table}{\numberline {3.8}{\ignorespaces Customize Sefarad\relax }}{30}{table.caption.157}}
\@writefile{toc}{\contentsline {subsubsection}{\numberline {3.3.1.8}Save own configuration}{31}{subsubsection.158}}
\newlabel{subsec:saveconfiguration}{{3.3.1.8}{31}{Save own configuration}{subsubsection.158}{}}
\@writefile{lot}{\contentsline {table}{\numberline {3.9}{\ignorespaces Save own configuration\relax }}{31}{table.caption.159}}
\@writefile{toc}{\contentsline {subsubsection}{\numberline {3.3.1.9}Reset own configuration}{32}{subsubsection.160}}
\newlabel{subsec:resetconfiguration}{{3.3.1.9}{32}{Reset own configuration}{subsubsection.160}{}}
\@writefile{lot}{\contentsline {table}{\numberline {3.10}{\ignorespaces Reset own configuration\relax }}{32}{table.caption.161}}
\@writefile{toc}{\contentsline {subsection}{\numberline {3.3.2}Admin use cases}{33}{subsection.162}}
\@writefile{toc}{\contentsline {subsubsection}{\numberline {3.3.2.1}Security and users management}{33}{subsubsection.163}}
\newlabel{subsec:usersmanagement}{{3.3.2.1}{33}{Security and users management}{subsubsection.163}{}}
\@writefile{lot}{\contentsline {table}{\numberline {3.11}{\ignorespaces Security and users management\relax }}{33}{table.caption.164}}
\@writefile{toc}{\contentsline {subsubsection}{\numberline {3.3.2.2}Local datasets management}{34}{subsubsection.165}}
\newlabel{subsec:localdatabasemanagement}{{3.3.2.2}{34}{Local datasets management}{subsubsection.165}{}}
\@writefile{lot}{\contentsline {table}{\numberline {3.12}{\ignorespaces Local datasets management\relax }}{34}{table.caption.166}}
\@writefile{toc}{\contentsline {subsection}{\numberline {3.3.3}Conclusions}{34}{subsection.167}}
\@setckpt{3-requisites}{
\setcounter{page}{35}
\setcounter{equation}{0}
\setcounter{enumi}{4}
\setcounter{enumii}{0}
\setcounter{enumiii}{0}
\setcounter{enumiv}{0}
\setcounter{footnote}{0}
\setcounter{mpfootnote}{0}
\setcounter{part}{0}
\setcounter{chapter}{3}
\setcounter{section}{3}
\setcounter{subsection}{3}
\setcounter{subsubsection}{0}
\setcounter{paragraph}{0}
\setcounter{subparagraph}{0}
\setcounter{figure}{1}
\setcounter{table}{12}
\setcounter{parentequation}{0}
\setcounter{cor}{0}
\setcounter{thm}{0}
\setcounter{LT@tables}{0}
\setcounter{LT@chunks}{0}
\setcounter{ContinuedFloat}{0}
\setcounter{KVtest}{0}
\setcounter{subfigure}{0}
\setcounter{subfigure@save}{0}
\setcounter{lofdepth}{1}
\setcounter{subtable}{0}
\setcounter{subtable@save}{0}
\setcounter{lotdepth}{1}
\setcounter{lstnumber}{39}
\setcounter{Item}{4}
\setcounter{Hfootnote}{37}
\setcounter{bookmark@seq@number}{37}
\setcounter{lstlisting}{0}
\setcounter{section@level}{0}
}
