\relax 
\providecommand\hyper@newdestlabel[2]{}
\@writefile{toc}{\contentsline {chapter}{\numberline {3}Sefarad 2.0}{25}{chapter.147}}
\@writefile{lof}{\addvspace {10\p@ }}
\@writefile{lot}{\addvspace {10\p@ }}
\newlabel{chap:sefarad2}{{3}{25}{Sefarad 2.0}{chapter.147}{}}
\@writefile{toc}{\contentsline {section}{\numberline {3.1}Introduction}{27}{section.148}}
\@writefile{toc}{\contentsline {section}{\numberline {3.2}Architecture}{27}{section.149}}
\@writefile{lof}{\contentsline {figure}{\numberline {3.1}{\ignorespaces Sefarad 2.0 Architecture\relax }}{28}{figure.caption.150}}
\newlabel{fig:archi}{{3.1}{28}{Sefarad 2.0 Architecture\relax }{figure.caption.150}{}}
\@writefile{toc}{\contentsline {subsection}{\numberline {3.2.1}Dashboard Architecture}{30}{subsection.151}}
\@writefile{toc}{\contentsline {subsubsection}{\numberline {3.2.1.1}Main module}{30}{subsubsection.152}}
\newlabel{lst:exe}{{3.1}{30}{Execute Query Code}{lstlisting.153}{}}
\@writefile{lol}{\contentsline {lstlisting}{\numberline {3.1}Execute Query Code}{30}{lstlisting.153}}
\newlabel{lst:auth}{{3.2}{31}{Authentication Code}{lstlisting.190}{}}
\@writefile{lol}{\contentsline {lstlisting}{\numberline {3.2}Authentication Code}{31}{lstlisting.190}}
\@writefile{toc}{\contentsline {subsubsection}{\numberline {3.2.1.2}Data pre-processor module}{33}{subsubsection.235}}
\newlabel{lst:auth2}{{3.3}{33}{Pre-processor Code}{lstlisting.236}{}}
\@writefile{lol}{\contentsline {lstlisting}{\numberline {3.3}Pre-processor Code}{33}{lstlisting.236}}
\@writefile{toc}{\contentsline {subsubsection}{\numberline {3.2.1.3}Web components}{34}{subsubsection.264}}
\newlabel{lst:imp}{{3.4}{34}{Web Components Import}{lstlisting.265}{}}
\@writefile{lol}{\contentsline {lstlisting}{\numberline {3.4}Web Components Import}{34}{lstlisting.265}}
\newlabel{lst:ins}{{3.5}{35}{Web Components Insertion}{lstlisting.275}{}}
\@writefile{lol}{\contentsline {lstlisting}{\numberline {3.5}Web Components Insertion}{35}{lstlisting.275}}
\newlabel{lst:basicWebComponent}{{3.6}{36}{Web Component Structure}{lstlisting.296}{}}
\@writefile{lol}{\contentsline {lstlisting}{\numberline {3.6}Web Component Structure}{36}{lstlisting.296}}
\newlabel{lst:webComponentBinding}{{3.7}{37}{Web Component Structure}{lstlisting.317}{}}
\@writefile{lol}{\contentsline {lstlisting}{\numberline {3.7}Web Component Structure}{37}{lstlisting.317}}
\@writefile{toc}{\contentsline {subsubsection}{\numberline {3.2.1.4}Crossfilter-Dc.js}{38}{subsubsection.339}}
\newlabel{lst:cross}{{3.8}{38}{Crossfilter Initialization}{lstlisting.340}{}}
\@writefile{lol}{\contentsline {lstlisting}{\numberline {3.8}Crossfilter Initialization}{38}{lstlisting.340}}
\newlabel{lst:dc}{{3.9}{39}{Dc Initialization}{lstlisting.356}{}}
\@writefile{lol}{\contentsline {lstlisting}{\numberline {3.9}Dc Initialization}{39}{lstlisting.356}}
\@writefile{toc}{\contentsline {subsection}{\numberline {3.2.2}Queries pipeline Architecture}{40}{subsection.379}}
\newlabel{lst:server}{{3.10}{40}{Dart Server Code}{lstlisting.380}{}}
\@writefile{lol}{\contentsline {lstlisting}{\numberline {3.10}Dart Server Code}{40}{lstlisting.380}}
\newlabel{lst:post}{{3.11}{41}{Dart Server Code 2}{lstlisting.418}{}}
\@writefile{lol}{\contentsline {lstlisting}{\numberline {3.11}Dart Server Code 2}{41}{lstlisting.418}}
\newlabel{lst:source}{{3.12}{42}{Datasource definition JSON}{lstlisting.448}{}}
\@writefile{lol}{\contentsline {lstlisting}{\numberline {3.12}Datasource definition JSON}{42}{lstlisting.448}}
\newlabel{lst:datasend}{{3.13}{43}{Datasources Data Sender}{lstlisting.459}{}}
\@writefile{lol}{\contentsline {lstlisting}{\numberline {3.13}Datasources Data Sender}{43}{lstlisting.459}}
\newlabel{lst:querydef}{{3.14}{44}{Query definition JSON}{lstlisting.484}{}}
\@writefile{lol}{\contentsline {lstlisting}{\numberline {3.14}Query definition JSON}{44}{lstlisting.484}}
\newlabel{lst:dsend}{{3.15}{45}{Query Data Sender}{lstlisting.498}{}}
\@writefile{lol}{\contentsline {lstlisting}{\numberline {3.15}Query Data Sender}{45}{lstlisting.498}}
\newlabel{lst:edit}{{3.16}{46}{SPARQL Editor Code}{lstlisting.528}{}}
\@writefile{lol}{\contentsline {lstlisting}{\numberline {3.16}SPARQL Editor Code}{46}{lstlisting.528}}
\@writefile{toc}{\contentsline {section}{\numberline {3.3}Interaction model}{47}{section.559}}
\@writefile{toc}{\contentsline {subsection}{\numberline {3.3.1}Defining a data source}{47}{subsection.560}}
\@writefile{lof}{\contentsline {figure}{\numberline {3.2}{\ignorespaces Add Data Source Web Page\relax }}{47}{figure.caption.561}}
\newlabel{fig:addSource}{{3.2}{47}{Add Data Source Web Page\relax }{figure.caption.561}{}}
\@writefile{toc}{\contentsline {subsection}{\numberline {3.3.2}Writing a query}{48}{subsection.562}}
\@writefile{lof}{\contentsline {figure}{\numberline {3.3}{\ignorespaces Add Query Web Page\relax }}{48}{figure.caption.563}}
\newlabel{fig:addQuery}{{3.3}{48}{Add Query Web Page\relax }{figure.caption.563}{}}
\@writefile{toc}{\contentsline {subsection}{\numberline {3.3.3}Visualising and editing a query}{49}{subsection.564}}
\@writefile{lof}{\contentsline {figure}{\numberline {3.4}{\ignorespaces Dashboard Tabs\relax }}{49}{figure.caption.565}}
\newlabel{fig:tabs}{{3.4}{49}{Dashboard Tabs\relax }{figure.caption.565}{}}
\@writefile{lof}{\contentsline {figure}{\numberline {3.5}{\ignorespaces Query Editor\relax }}{50}{figure.caption.566}}
\newlabel{fig:queryEditor}{{3.5}{50}{Query Editor\relax }{figure.caption.566}{}}
\@writefile{lof}{\contentsline {figure}{\numberline {3.6}{\ignorespaces Query Editor\relax }}{50}{figure.caption.567}}
\newlabel{fig:queryEditor2}{{3.6}{50}{Query Editor\relax }{figure.caption.567}{}}
\@writefile{toc}{\contentsline {section}{\numberline {3.4}Widgets}{52}{section.568}}
\@writefile{toc}{\contentsline {subsection}{\numberline {3.4.1}Common implementation}{52}{subsection.569}}
\newlabel{lst:genericWidget}{{3.17}{53}{Generic Widget Structure}{lstlisting.570}{}}
\@writefile{lol}{\contentsline {lstlisting}{\numberline {3.17}Generic Widget Structure}{53}{lstlisting.570}}
\@writefile{toc}{\contentsline {subsection}{\numberline {3.4.2}Specific implementation}{54}{subsection.592}}
\@writefile{toc}{\contentsline {subsubsection}{\numberline {3.4.2.1}Faceted Search}{54}{subsubsection.593}}
\@writefile{lof}{\contentsline {figure}{\numberline {3.7}{\ignorespaces Faceted Search Widget\relax }}{54}{figure.caption.594}}
\newlabel{fig:searchWidget}{{3.7}{54}{Faceted Search Widget\relax }{figure.caption.594}{}}
\newlabel{lst:facTemplate}{{3.18}{55}{Faceted Search Template Code}{lstlisting.595}{}}
\@writefile{lol}{\contentsline {lstlisting}{\numberline {3.18}Faceted Search Template Code}{55}{lstlisting.595}}
\newlabel{lst:fac}{{3.19}{56}{Faceted Search Script Code}{lstlisting.623}{}}
\@writefile{lol}{\contentsline {lstlisting}{\numberline {3.19}Faceted Search Script Code}{56}{lstlisting.623}}
\citation{stevenSkelston}
\@writefile{toc}{\contentsline {subsubsection}{\numberline {3.4.2.2}Results Table}{57}{subsubsection.659}}
\@writefile{lof}{\contentsline {figure}{\numberline {3.8}{\ignorespaces Results Table Widget\relax }}{57}{figure.caption.660}}
\newlabel{fig:resultsWidget}{{3.8}{57}{Results Table Widget\relax }{figure.caption.660}{}}
\newlabel{lst:resHTML}{{3.20}{58}{Results Table HTML Code}{lstlisting.661}{}}
\@writefile{lol}{\contentsline {lstlisting}{\numberline {3.20}Results Table HTML Code}{58}{lstlisting.661}}
\newlabel{lst:tab}{{3.21}{58}{Results Table Modifications Code}{lstlisting.673}{}}
\@writefile{lol}{\contentsline {lstlisting}{\numberline {3.21}Results Table Modifications Code}{58}{lstlisting.673}}
\@writefile{toc}{\contentsline {subsubsection}{\numberline {3.4.2.3}Pie Chart}{59}{subsubsection.685}}
\@writefile{lof}{\contentsline {figure}{\numberline {3.9}{\ignorespaces Pie Chart Widget\relax }}{59}{figure.caption.686}}
\newlabel{fig:pieChartWidget}{{3.9}{59}{Pie Chart Widget\relax }{figure.caption.686}{}}
\newlabel{lst:piec}{{3.22}{60}{Pie Chart Code}{lstlisting.687}{}}
\@writefile{lol}{\contentsline {lstlisting}{\numberline {3.22}Pie Chart Code}{60}{lstlisting.687}}
\@writefile{toc}{\contentsline {subsubsection}{\numberline {3.4.2.4}Bar Chart}{61}{subsubsection.711}}
\@writefile{lof}{\contentsline {figure}{\numberline {3.10}{\ignorespaces Bar Chart Widget\relax }}{61}{figure.caption.712}}
\newlabel{fig:barChartWidget}{{3.10}{61}{Bar Chart Widget\relax }{figure.caption.712}{}}
\newlabel{lst:barChartWidget}{{3.23}{61}{Bar Chart Code}{lstlisting.713}{}}
\@writefile{lol}{\contentsline {lstlisting}{\numberline {3.23}Bar Chart Code}{61}{lstlisting.713}}
\@writefile{toc}{\contentsline {subsubsection}{\numberline {3.4.2.5}Bubble Chart}{62}{subsubsection.745}}
\@writefile{lof}{\contentsline {figure}{\numberline {3.11}{\ignorespaces Bubble Chart Widget\relax }}{62}{figure.caption.746}}
\newlabel{fig:bubbleChartWidget}{{3.11}{62}{Bubble Chart Widget\relax }{figure.caption.746}{}}
\newlabel{lst:bubbleChartWidget}{{3.24}{63}{Bubble Chart Code}{lstlisting.747}{}}
\@writefile{lol}{\contentsline {lstlisting}{\numberline {3.24}Bubble Chart Code}{63}{lstlisting.747}}
\@writefile{toc}{\contentsline {subsubsection}{\numberline {3.4.2.6}Number Chart}{65}{subsubsection.802}}
\@writefile{lof}{\contentsline {figure}{\numberline {3.12}{\ignorespaces Number Chart Widget, skin 1\relax }}{65}{figure.caption.803}}
\newlabel{fig:numberChartWidget1}{{3.12}{65}{Number Chart Widget, skin 1\relax }{figure.caption.803}{}}
\@writefile{lof}{\contentsline {figure}{\numberline {3.13}{\ignorespaces Number Chart Widget, skin 2\relax }}{65}{figure.caption.804}}
\newlabel{fig:numberChartWidget2}{{3.13}{65}{Number Chart Widget, skin 2\relax }{figure.caption.804}{}}
\newlabel{lst:NumberChartWidget}{{3.25}{66}{Number Chart Code}{lstlisting.805}{}}
\@writefile{lol}{\contentsline {lstlisting}{\numberline {3.25}Number Chart Code}{66}{lstlisting.805}}
\@writefile{toc}{\contentsline {subsubsection}{\numberline {3.4.2.7}Reviews (Custom Widget example)}{69}{subsubsection.883}}
\@writefile{lof}{\contentsline {figure}{\numberline {3.14}{\ignorespaces Reviews Custom Widget\relax }}{69}{figure.caption.884}}
\newlabel{fig:reviewsWidget}{{3.14}{69}{Reviews Custom Widget\relax }{figure.caption.884}{}}
\newlabel{lst:reviewsWidget}{{3.26}{69}{Reviews Widget Code}{lstlisting.885}{}}
\@writefile{lol}{\contentsline {lstlisting}{\numberline {3.26}Reviews Widget Code}{69}{lstlisting.885}}
\@writefile{toc}{\contentsline {subsubsection}{\numberline {3.4.2.8}Map}{71}{subsubsection.925}}
\@writefile{lof}{\contentsline {figure}{\numberline {3.15}{\ignorespaces Polygons Map Widget\relax }}{71}{figure.caption.926}}
\newlabel{fig:polyMapWidget}{{3.15}{71}{Polygons Map Widget\relax }{figure.caption.926}{}}
\newlabel{lst:mapWidget1}{{3.27}{72}{Map Widget onClick Code}{lstlisting.927}{}}
\@writefile{lol}{\contentsline {lstlisting}{\numberline {3.27}Map Widget onClick Code}{72}{lstlisting.927}}
\newlabel{lst:mapWidget2}{{3.28}{73}{Map Widget Styling Code}{lstlisting.946}{}}
\@writefile{lol}{\contentsline {lstlisting}{\numberline {3.28}Map Widget Styling Code}{73}{lstlisting.946}}
\newlabel{lst:mapWidget3}{{3.29}{74}{Map Widget Pop-up Code}{lstlisting.980}{}}
\@writefile{lol}{\contentsline {lstlisting}{\numberline {3.29}Map Widget Pop-up Code}{74}{lstlisting.980}}
\@writefile{lof}{\contentsline {figure}{\numberline {3.16}{\ignorespaces Marker Map Widget\relax }}{74}{figure.caption.993}}
\newlabel{fig:markerMapWidget}{{3.16}{74}{Marker Map Widget\relax }{figure.caption.993}{}}
\@writefile{toc}{\contentsline {section}{\numberline {3.5}Summary}{75}{section.994}}
\@setckpt{3-sefarad}{
\setcounter{page}{76}
\setcounter{equation}{0}
\setcounter{enumi}{0}
\setcounter{enumii}{0}
\setcounter{enumiii}{0}
\setcounter{enumiv}{0}
\setcounter{footnote}{2}
\setcounter{mpfootnote}{0}
\setcounter{part}{0}
\setcounter{chapter}{3}
\setcounter{section}{5}
\setcounter{subsection}{0}
\setcounter{subsubsection}{8}
\setcounter{paragraph}{0}
\setcounter{subparagraph}{0}
\setcounter{figure}{16}
\setcounter{table}{0}
\setcounter{parentequation}{0}
\setcounter{cor}{0}
\setcounter{thm}{0}
\setcounter{LT@tables}{0}
\setcounter{LT@chunks}{0}
\setcounter{ContinuedFloat}{0}
\setcounter{KVtest}{0}
\setcounter{subfigure}{0}
\setcounter{subfigure@save}{0}
\setcounter{lofdepth}{1}
\setcounter{subtable}{0}
\setcounter{subtable@save}{0}
\setcounter{lotdepth}{1}
\setcounter{lstnumber}{13}
\setcounter{Item}{0}
\setcounter{Hfootnote}{26}
\setcounter{bookmark@seq@number}{56}
\setcounter{lstlisting}{29}
\setcounter{section@level}{0}
}
