\relax 
\providecommand\hyper@newdestlabel[2]{}
\@writefile{toc}{\contentsline {chapter}{\numberline {4}Architecture}{35}{chapter.168}}
\@writefile{lof}{\addvspace {10\p@ }}
\@writefile{lot}{\addvspace {10\p@ }}
\newlabel{chap:architecture}{{4}{35}{Architecture}{chapter.168}{}}
\@writefile{toc}{\contentsline {section}{\numberline {4.1}Introduction}{37}{section.169}}
\@writefile{toc}{\contentsline {section}{\numberline {4.2}Architecture}{37}{section.170}}
\@writefile{lof}{\contentsline {figure}{\numberline {4.1}{\ignorespaces General Architecture\relax }}{37}{figure.caption.171}}
\newlabel{fig:ArchitectureGeneral}{{4.1}{37}{General Architecture\relax }{figure.caption.171}{}}
\@writefile{toc}{\contentsline {section}{\numberline {4.3}SPARQL Engine}{39}{section.172}}
\newlabel{sec:sparqlengine}{{4.3}{39}{SPARQL Engine}{section.172}{}}
\@writefile{toc}{\contentsline {subsection}{\numberline {4.3.1}SPARQL Editor}{39}{subsection.173}}
\newlabel{subsec:sparqleditor}{{4.3.1}{39}{SPARQL Editor}{subsection.173}{}}
\@writefile{lof}{\contentsline {figure}{\numberline {4.2}{\ignorespaces SPARQL Editor\relax }}{40}{figure.caption.179}}
\newlabel{fig:sparqleditor}{{4.2}{40}{SPARQL Editor\relax }{figure.caption.179}{}}
\@writefile{toc}{\contentsline {subsection}{\numberline {4.3.2}SPARQL queries executor}{41}{subsection.180}}
\newlabel{subsec:queriesexecutor}{{4.3.2}{41}{SPARQL queries executor}{subsection.180}{}}
\@writefile{lof}{\contentsline {figure}{\numberline {4.3}{\ignorespaces SPARQL query sequence diagram\relax }}{41}{figure.caption.181}}
\newlabel{fig:sparqlengine}{{4.3}{41}{SPARQL query sequence diagram\relax }{figure.caption.181}{}}
\@writefile{toc}{\contentsline {section}{\numberline {4.4}Geo Proxy}{41}{section.182}}
\newlabel{sec:geoproxy}{{4.4}{41}{Geo Proxy}{section.182}{}}
\newlabel{lst:sparqltogeojson}{{4.1}{42}{SPARQL to GeoJSON conversion}{lstlisting.183}{}}
\@writefile{lol}{\contentsline {lstlisting}{\numberline {4.1}SPARQL to GeoJSON conversion}{42}{lstlisting.183}}
\citation{geoserverbeginners}
\@writefile{toc}{\contentsline {section}{\numberline {4.5}Local Server}{44}{section.246}}
\newlabel{sec:mapserver}{{4.5}{44}{Local Server}{section.246}{}}
\@writefile{lof}{\contentsline {figure}{\numberline {4.4}{\ignorespaces Fuseki/Virtuoso and GeoServer\relax }}{44}{figure.caption.247}}
\newlabel{fig:fusekigeoserver}{{4.4}{44}{Fuseki/Virtuoso and GeoServer\relax }{figure.caption.247}{}}
\@writefile{toc}{\contentsline {subsection}{\numberline {4.5.1}Fuseki and Virtuoso}{44}{subsection.248}}
\newlabel{subsec:fuseki}{{4.5.1}{44}{Fuseki and Virtuoso}{subsection.248}{}}
\@writefile{toc}{\contentsline {subsection}{\numberline {4.5.2}Geo Server}{44}{subsection.249}}
\newlabel{subsec:geoserver}{{4.5.2}{44}{Geo Server}{subsection.249}{}}
\@writefile{toc}{\contentsline {section}{\numberline {4.6}Search and filtering module}{45}{section.251}}
\newlabel{sec:searchandfilteringmodule}{{4.6}{45}{Search and filtering module}{section.251}{}}
\@writefile{toc}{\contentsline {subsection}{\numberline {4.6.1}Keyword search}{46}{subsection.252}}
\newlabel{subsec:keyword}{{4.6.1}{46}{Keyword search}{subsection.252}{}}
\@writefile{lof}{\contentsline {figure}{\numberline {4.5}{\ignorespaces Keyword search example\relax }}{46}{figure.caption.253}}
\newlabel{fig:keywordarch}{{4.5}{46}{Keyword search example\relax }{figure.caption.253}{}}
\@writefile{lof}{\contentsline {figure}{\numberline {4.6}{\ignorespaces Faceted search example\relax }}{46}{figure.caption.254}}
\newlabel{fig:facetedarch}{{4.6}{46}{Faceted search example\relax }{figure.caption.254}{}}
\@writefile{toc}{\contentsline {subsection}{\numberline {4.6.2}Faceted search}{47}{subsection.255}}
\newlabel{subsec:facetedsearch}{{4.6.2}{47}{Faceted search}{subsection.255}{}}
\@writefile{toc}{\contentsline {subsection}{\numberline {4.6.3}Geo filtering}{47}{subsection.256}}
\newlabel{subsec:geofiltering}{{4.6.3}{47}{Geo filtering}{subsection.256}{}}
\@writefile{toc}{\contentsline {section}{\numberline {4.7}Model View View-Model}{48}{section.259}}
\newlabel{sec:mvvm}{{4.7}{48}{Model View View-Model}{section.259}{}}
\@writefile{lof}{\contentsline {figure}{\numberline {4.7}{\ignorespaces Model View ViewModel}}{48}{figure.caption.261}}
\newlabel{fig:lodcloud}{{4.7}{48}{Model View ViewModel}{figure.caption.261}{}}
\newlabel{lst:binding}{{4.2}{49}{Active widgets binding}{lstlisting.264}{}}
\@writefile{lol}{\contentsline {lstlisting}{\numberline {4.2}Active widgets binding}{49}{lstlisting.264}}
\@writefile{toc}{\contentsline {subsection}{\numberline {4.7.1}Data Model}{49}{subsection.269}}
\newlabel{subsec:datamodel}{{4.7.1}{49}{Data Model}{subsection.269}{}}
\@writefile{toc}{\contentsline {subsection}{\numberline {4.7.2}Widgets layout}{50}{subsection.270}}
\newlabel{subsec:widgetslayout}{{4.7.2}{50}{Widgets layout}{subsection.270}{}}
\@writefile{toc}{\contentsline {subsubsection}{\numberline {4.7.2.1}Linear layout}{51}{subsubsection.271}}
\newlabel{subsubsec:linear}{{4.7.2.1}{51}{Linear layout}{subsubsection.271}{}}
\@writefile{lof}{\contentsline {figure}{\numberline {4.8}{\ignorespaces Linear Layout\relax }}{51}{figure.caption.272}}
\newlabel{fig:accordionlayout}{{4.8}{51}{Linear Layout\relax }{figure.caption.272}{}}
\@writefile{toc}{\contentsline {subsubsection}{\numberline {4.7.2.2}Accordion layout}{51}{subsubsection.273}}
\newlabel{subsubsec:accordion}{{4.7.2.2}{51}{Accordion layout}{subsubsection.273}{}}
\citation{phpmongodb}
\@writefile{lof}{\contentsline {figure}{\numberline {4.9}{\ignorespaces Accordion Layout\relax }}{52}{figure.caption.274}}
\newlabel{fig:accordionlayout}{{4.9}{52}{Accordion Layout\relax }{figure.caption.274}{}}
\@writefile{toc}{\contentsline {section}{\numberline {4.8}User management module}{52}{section.275}}
\newlabel{sec:usermanagement}{{4.8}{52}{User management module}{section.275}{}}
\@writefile{toc}{\contentsline {subsection}{\numberline {4.8.1}Security: authentication and authorization}{52}{subsection.277}}
\newlabel{subsec:security}{{4.8.1}{52}{Security: authentication and authorization}{subsection.277}{}}
\@writefile{toc}{\contentsline {subsubsection}{\numberline {4.8.1.1}MondoDB connection}{53}{subsubsection.278}}
\newlabel{subsubsec:dbconnection}{{4.8.1.1}{53}{MondoDB connection}{subsubsection.278}{}}
\newlabel{lst:dbconnection}{{4.3}{53}{dbconnection.php}{lstlisting.279}{}}
\@writefile{lol}{\contentsline {lstlisting}{\numberline {4.3}dbconnection.php}{53}{lstlisting.279}}
\@writefile{toc}{\contentsline {subsubsection}{\numberline {4.8.1.2}Session Manager}{54}{subsubsection.314}}
\newlabel{subsubsec:sessionmanager}{{4.8.1.2}{54}{Session Manager}{subsubsection.314}{}}
\newlabel{lst:session}{{4.4}{55}{session.php}{lstlisting.315}{}}
\@writefile{lol}{\contentsline {lstlisting}{\numberline {4.4}session.php}{55}{lstlisting.315}}
\@writefile{toc}{\contentsline {subsubsection}{\numberline {4.8.1.3}User class}{57}{subsubsection.381}}
\newlabel{subsubsec:userclass}{{4.8.1.3}{57}{User class}{subsubsection.381}{}}
\newlabel{lst:userphp}{{4.5}{57}{user.php}{lstlisting.382}{}}
\@writefile{lol}{\contentsline {lstlisting}{\numberline {4.5}user.php}{57}{lstlisting.382}}
\@writefile{toc}{\contentsline {subsection}{\numberline {4.8.2}MongoDB: settings and preferences}{59}{subsection.432}}
\newlabel{subsec:settingssandprefs}{{4.8.2}{59}{MongoDB: settings and preferences}{subsection.432}{}}
\@writefile{toc}{\contentsline {subsubsection}{\numberline {4.8.2.1}Loading configuration}{60}{subsubsection.433}}
\newlabel{subsubsec:loadconf}{{4.8.2.1}{60}{Loading configuration}{subsubsection.433}{}}
\newlabel{lst:load}{{4.6}{60}{mongo\_load.php}{lstlisting.434}{}}
\@writefile{lol}{\contentsline {lstlisting}{\numberline {4.6}mongo\_load.php}{60}{lstlisting.434}}
\@writefile{toc}{\contentsline {subsubsection}{\numberline {4.8.2.2}Saving configuration}{61}{subsubsection.465}}
\newlabel{subsubsec:saveconf}{{4.8.2.2}{61}{Saving configuration}{subsubsection.465}{}}
\newlabel{lst:save}{{4.7}{61}{mongo\_save.php}{lstlisting.466}{}}
\@writefile{lol}{\contentsline {lstlisting}{\numberline {4.7}mongo\_save.php}{61}{lstlisting.466}}
\@writefile{toc}{\contentsline {subsubsection}{\numberline {4.8.2.3}Deleting configuration}{62}{subsubsection.499}}
\newlabel{subsubsec:deleteconf}{{4.8.2.3}{62}{Deleting configuration}{subsubsection.499}{}}
\newlabel{lst:delete}{{4.8}{62}{mongo\_delete.php}{lstlisting.500}{}}
\@writefile{lol}{\contentsline {lstlisting}{\numberline {4.8}mongo\_delete.php}{62}{lstlisting.500}}
\@writefile{toc}{\contentsline {section}{\numberline {4.9}Setup module}{62}{section.524}}
\newlabel{sec:setup}{{4.9}{62}{Setup module}{section.524}{}}
\@writefile{toc}{\contentsline {subsection}{\numberline {4.9.1}Custom installer}{63}{subsection.525}}
\newlabel{subsec:custominstaller}{{4.9.1}{63}{Custom installer}{subsection.525}{}}
\@writefile{lof}{\contentsline {figure}{\numberline {4.10}{\ignorespaces Installation example (1)\relax }}{63}{figure.caption.526}}
\newlabel{fig:installexample1}{{4.10}{63}{Installation example (1)\relax }{figure.caption.526}{}}
\@writefile{lof}{\contentsline {figure}{\numberline {4.11}{\ignorespaces Installation example (2)\relax }}{63}{figure.caption.527}}
\newlabel{fig:installexample2}{{4.11}{63}{Installation example (2)\relax }{figure.caption.527}{}}
\@writefile{lof}{\contentsline {figure}{\numberline {4.12}{\ignorespaces Custom installer\relax }}{64}{figure.caption.528}}
\newlabel{fig:custominstall}{{4.12}{64}{Custom installer\relax }{figure.caption.528}{}}
\@writefile{toc}{\contentsline {subsection}{\numberline {4.9.2}Automation: Grunt.JS Task Runner}{64}{subsection.529}}
\newlabel{subsec:automation}{{4.9.2}{64}{Automation: Grunt.JS Task Runner}{subsection.529}{}}
\newlabel{lst:package}{{4.9}{65}{package.json}{lstlisting.530}{}}
\@writefile{lol}{\contentsline {lstlisting}{\numberline {4.9}package.json}{65}{lstlisting.530}}
\newlabel{lst:gruntfile}{{4.10}{66}{Gruntfile.js}{lstlisting.562}{}}
\@writefile{lol}{\contentsline {lstlisting}{\numberline {4.10}Gruntfile.js}{66}{lstlisting.562}}
\@setckpt{4-architecture}{
\setcounter{page}{68}
\setcounter{equation}{0}
\setcounter{enumi}{4}
\setcounter{enumii}{0}
\setcounter{enumiii}{0}
\setcounter{enumiv}{0}
\setcounter{footnote}{12}
\setcounter{mpfootnote}{0}
\setcounter{part}{0}
\setcounter{chapter}{4}
\setcounter{section}{9}
\setcounter{subsection}{2}
\setcounter{subsubsection}{0}
\setcounter{paragraph}{0}
\setcounter{subparagraph}{0}
\setcounter{figure}{12}
\setcounter{table}{0}
\setcounter{parentequation}{0}
\setcounter{cor}{0}
\setcounter{thm}{0}
\setcounter{LT@tables}{0}
\setcounter{LT@chunks}{0}
\setcounter{ContinuedFloat}{0}
\setcounter{KVtest}{0}
\setcounter{subfigure}{0}
\setcounter{subfigure@save}{0}
\setcounter{lofdepth}{1}
\setcounter{subtable}{0}
\setcounter{subtable@save}{0}
\setcounter{lotdepth}{1}
\setcounter{lstnumber}{55}
\setcounter{Item}{4}
\setcounter{Hfootnote}{49}
\setcounter{bookmark@seq@number}{68}
\setcounter{lstlisting}{10}
\setcounter{section@level}{0}
}
