\relax 
\providecommand\hyper@newdestlabel[2]{}
\@writefile{toc}{\contentsline {chapter}{\numberline {4}Case Study}{77}{chapter.995}}
\@writefile{lof}{\addvspace {10\p@ }}
\@writefile{lot}{\addvspace {10\p@ }}
\newlabel{chap:caseStudy}{{4}{77}{Case Study}{chapter.995}{}}
\@writefile{toc}{\contentsline {section}{\numberline {4.1}Introduction}{79}{section.996}}
\@writefile{toc}{\contentsline {section}{\numberline {4.2}Slovak Demo: Smart Open data}{80}{section.997}}
\@writefile{toc}{\contentsline {subsection}{\numberline {4.2.1}Origin}{80}{subsection.998}}
\gdef \LT@i {\LT@entry 
    {1}{211.96927pt}\LT@entry 
    {1}{126.21101pt}\LT@entry 
    {1}{97.75826pt}}
\@writefile{lot}{\contentsline {table}{\numberline {4.1}{\ignorespaces Data INSPIRE designation}}{84}{table.1003}}
\newlabel{tab:slovakiantable}{{4.1}{84}{Data INSPIRE designation}{table.1003}{}}
\newlabel{lst:slovakiaquery}{{4.1}{85}{Slovak Demo SPARQL}{lstlisting.1004}{}}
\@writefile{lol}{\contentsline {lstlisting}{\numberline {4.1}Slovak Demo SPARQL}{85}{lstlisting.1004}}
\@writefile{toc}{\contentsline {subsection}{\numberline {4.2.2}Structure and pre-process}{86}{subsection.1030}}
\newlabel{lst:slovakiajsonresult}{{4.2}{86}{Slovakia results JSON example}{lstlisting.1031}{}}
\@writefile{lol}{\contentsline {lstlisting}{\numberline {4.2}Slovakia results JSON example}{86}{lstlisting.1031}}
\@writefile{toc}{\contentsline {subsection}{\numberline {4.2.3}Analysis Design}{89}{subsection.1087}}
\@writefile{lof}{\contentsline {figure}{\numberline {4.1}{\ignorespaces Slovak Faceted Search\relax }}{89}{figure.caption.1088}}
\newlabel{fig:faceted}{{4.1}{89}{Slovak Faceted Search\relax }{figure.caption.1088}{}}
\@writefile{lof}{\contentsline {figure}{\numberline {4.2}{\ignorespaces Slovak Map\relax }}{90}{figure.caption.1089}}
\newlabel{fig:map}{{4.2}{90}{Slovak Map\relax }{figure.caption.1089}{}}
\@writefile{lof}{\contentsline {figure}{\numberline {4.3}{\ignorespaces Slovak Results Table\relax }}{90}{figure.caption.1090}}
\newlabel{fig:results}{{4.3}{90}{Slovak Results Table\relax }{figure.caption.1090}{}}
\@writefile{lof}{\contentsline {figure}{\numberline {4.4}{\ignorespaces Slovak Pie Charts\relax }}{91}{figure.caption.1091}}
\newlabel{fig:pies}{{4.4}{91}{Slovak Pie Charts\relax }{figure.caption.1091}{}}
\@writefile{toc}{\contentsline {subsection}{\numberline {4.2.4}Conclusions}{92}{subsection.1092}}
\@writefile{toc}{\contentsline {section}{\numberline {4.3}Restaurants Demo}{92}{section.1093}}
\@writefile{toc}{\contentsline {subsection}{\numberline {4.3.1}Origin}{92}{subsection.1094}}
\newlabel{lst:restaurantsquery}{{4.3}{93}{Restaurants SPARQL Query}{lstlisting.1097}{}}
\@writefile{lol}{\contentsline {lstlisting}{\numberline {4.3}Restaurants SPARQL Query}{93}{lstlisting.1097}}
\@writefile{toc}{\contentsline {subsection}{\numberline {4.3.2}Structure and pre-process}{94}{subsection.1131}}
\newlabel{lst:restjsonresult}{{4.4}{94}{Restaurants results JSON example}{lstlisting.1132}{}}
\@writefile{lol}{\contentsline {lstlisting}{\numberline {4.4}Restaurants results JSON example}{94}{lstlisting.1132}}
\@writefile{toc}{\contentsline {subsection}{\numberline {4.3.3}Analysis Design}{97}{subsection.1198}}
\@writefile{lof}{\contentsline {figure}{\numberline {4.5}{\ignorespaces Number Charts\relax }}{97}{figure.caption.1199}}
\newlabel{fig:numbers}{{4.5}{97}{Number Charts\relax }{figure.caption.1199}{}}
\@writefile{lof}{\contentsline {figure}{\numberline {4.6}{\ignorespaces Pie Charts\relax }}{97}{figure.caption.1200}}
\newlabel{fig:pies}{{4.6}{97}{Pie Charts\relax }{figure.caption.1200}{}}
\@writefile{lof}{\contentsline {figure}{\numberline {4.7}{\ignorespaces Price Bar and Bubble Charts\relax }}{98}{figure.caption.1201}}
\newlabel{fig:price}{{4.7}{98}{Price Bar and Bubble Charts\relax }{figure.caption.1201}{}}
\@writefile{lof}{\contentsline {figure}{\numberline {4.8}{\ignorespaces Faceted Search and Results Table\relax }}{99}{figure.caption.1202}}
\newlabel{fig:results}{{4.8}{99}{Faceted Search and Results Table\relax }{figure.caption.1202}{}}
\@writefile{toc}{\contentsline {subsection}{\numberline {4.3.4}Conclusions}{100}{subsection.1203}}
\@writefile{toc}{\contentsline {section}{\numberline {4.4}Tourpedia Demo}{100}{section.1204}}
\@writefile{toc}{\contentsline {subsection}{\numberline {4.4.1}Origin}{100}{subsection.1205}}
\@writefile{toc}{\contentsline {subsection}{\numberline {4.4.2}Structure and pre-process}{101}{subsection.1206}}
\newlabel{lst:restjsonresult}{{4.5}{101}{PLaces JSON example}{lstlisting.1207}{}}
\@writefile{lol}{\contentsline {lstlisting}{\numberline {4.5}PLaces JSON example}{101}{lstlisting.1207}}
\@writefile{toc}{\contentsline {subsection}{\numberline {4.4.3}Analysis Design}{103}{subsection.1223}}
\@writefile{lof}{\contentsline {figure}{\numberline {4.9}{\ignorespaces Map and Number Widgets\relax }}{103}{figure.caption.1224}}
\newlabel{fig:map}{{4.9}{103}{Map and Number Widgets\relax }{figure.caption.1224}{}}
\@writefile{lof}{\contentsline {figure}{\numberline {4.10}{\ignorespaces Filters\relax }}{103}{figure.caption.1225}}
\newlabel{fig:filters}{{4.10}{103}{Filters\relax }{figure.caption.1225}{}}
\@writefile{lof}{\contentsline {figure}{\numberline {4.11}{\ignorespaces Reviews and Table widgets\relax }}{104}{figure.caption.1226}}
\newlabel{fig:reviews}{{4.11}{104}{Reviews and Table widgets\relax }{figure.caption.1226}{}}
\@writefile{toc}{\contentsline {subsection}{\numberline {4.4.4}Conclusions}{104}{subsection.1227}}
\@writefile{toc}{\contentsline {section}{\numberline {4.5}Summary}{104}{section.1228}}
\@setckpt{4-case-study}{
\setcounter{page}{105}
\setcounter{equation}{0}
\setcounter{enumi}{0}
\setcounter{enumii}{0}
\setcounter{enumiii}{0}
\setcounter{enumiv}{0}
\setcounter{footnote}{6}
\setcounter{mpfootnote}{0}
\setcounter{part}{0}
\setcounter{chapter}{4}
\setcounter{section}{5}
\setcounter{subsection}{0}
\setcounter{subsubsection}{0}
\setcounter{paragraph}{0}
\setcounter{subparagraph}{0}
\setcounter{figure}{11}
\setcounter{table}{1}
\setcounter{parentequation}{0}
\setcounter{cor}{0}
\setcounter{thm}{0}
\setcounter{LT@tables}{1}
\setcounter{LT@chunks}{2}
\setcounter{ContinuedFloat}{0}
\setcounter{KVtest}{0}
\setcounter{subfigure}{0}
\setcounter{subfigure@save}{0}
\setcounter{lofdepth}{1}
\setcounter{subtable}{0}
\setcounter{subtable@save}{0}
\setcounter{lotdepth}{1}
\setcounter{lstnumber}{16}
\setcounter{Item}{0}
\setcounter{Hfootnote}{32}
\setcounter{bookmark@seq@number}{74}
\setcounter{lstlisting}{5}
\setcounter{section@level}{0}
}
