\relax 
\providecommand\hyper@newdestlabel[2]{}
\@writefile{toc}{\contentsline {chapter}{\numberline {4}Case Study}{83}{chapter.905}}
\@writefile{lof}{\addvspace {10\p@ }}
\@writefile{lot}{\addvspace {10\p@ }}
\newlabel{chap:caseStudy}{{4}{83}{Case Study}{chapter.905}{}}
\@writefile{toc}{\contentsline {section}{\numberline {4.1}Introduction}{85}{section.906}}
\@writefile{toc}{\contentsline {section}{\numberline {4.2}Slovak Demo: Smart Open data}{86}{section.907}}
\@writefile{toc}{\contentsline {subsection}{\numberline {4.2.1}Origin}{86}{subsection.908}}
\gdef \LT@i {\LT@entry 
    {1}{211.96927pt}\LT@entry 
    {1}{126.21101pt}\LT@entry 
    {1}{97.75826pt}}
\@writefile{lot}{\contentsline {table}{\numberline {4.1}{\ignorespaces Data INSPIRE designation}}{90}{table.913}}
\newlabel{tab:slovakiantable}{{4.1}{90}{Data INSPIRE designation}{table.913}{}}
\newlabel{lst:slovakiaquery}{{4.1}{91}{Slovak Demo SPARQL}{lstlisting.914}{}}
\@writefile{lol}{\contentsline {lstlisting}{\numberline {4.1}Slovak Demo SPARQL}{91}{lstlisting.914}}
\@writefile{toc}{\contentsline {subsection}{\numberline {4.2.2}Structure and pre-process}{92}{subsection.940}}
\newlabel{lst:slovakiajsonresult}{{4.2}{92}{Slovakia results JSON example}{lstlisting.941}{}}
\@writefile{lol}{\contentsline {lstlisting}{\numberline {4.2}Slovakia results JSON example}{92}{lstlisting.941}}
\@writefile{toc}{\contentsline {subsection}{\numberline {4.2.3}Analysis Design}{95}{subsection.997}}
\@writefile{lof}{\contentsline {figure}{\numberline {4.1}{\ignorespaces Slovak Faceted Search\relax }}{95}{figure.caption.998}}
\newlabel{fig:faceted}{{4.1}{95}{Slovak Faceted Search\relax }{figure.caption.998}{}}
\@writefile{lof}{\contentsline {figure}{\numberline {4.2}{\ignorespaces Slovak Map\relax }}{96}{figure.caption.999}}
\newlabel{fig:map}{{4.2}{96}{Slovak Map\relax }{figure.caption.999}{}}
\@writefile{lof}{\contentsline {figure}{\numberline {4.3}{\ignorespaces Slovak Results Table\relax }}{96}{figure.caption.1000}}
\newlabel{fig:results}{{4.3}{96}{Slovak Results Table\relax }{figure.caption.1000}{}}
\@writefile{lof}{\contentsline {figure}{\numberline {4.4}{\ignorespaces Slovak Pie Charts\relax }}{97}{figure.caption.1001}}
\newlabel{fig:pies}{{4.4}{97}{Slovak Pie Charts\relax }{figure.caption.1001}{}}
\@writefile{toc}{\contentsline {subsection}{\numberline {4.2.4}Conclusions}{98}{subsection.1002}}
\@writefile{toc}{\contentsline {section}{\numberline {4.3}Restaurants Demo}{98}{section.1003}}
\@writefile{toc}{\contentsline {subsection}{\numberline {4.3.1}Origin}{98}{subsection.1004}}
\newlabel{lst:restaurantsquery}{{4.3}{99}{REstaurants SPARQL}{lstlisting.1007}{}}
\@writefile{lol}{\contentsline {lstlisting}{\numberline {4.3}REstaurants SPARQL}{99}{lstlisting.1007}}
\@writefile{toc}{\contentsline {subsection}{\numberline {4.3.2}Structure and pre-process}{100}{subsection.1041}}
\newlabel{lst:restjsonresult}{{4.4}{100}{Restaurants results JSON example}{lstlisting.1042}{}}
\@writefile{lol}{\contentsline {lstlisting}{\numberline {4.4}Restaurants results JSON example}{100}{lstlisting.1042}}
\@writefile{toc}{\contentsline {subsection}{\numberline {4.3.3}Analysis Design}{102}{subsection.1108}}
\@writefile{lof}{\contentsline {figure}{\numberline {4.5}{\ignorespaces Number Charts\relax }}{103}{figure.caption.1109}}
\newlabel{fig:numbers}{{4.5}{103}{Number Charts\relax }{figure.caption.1109}{}}
\@writefile{lof}{\contentsline {figure}{\numberline {4.6}{\ignorespaces Pie Charts\relax }}{103}{figure.caption.1110}}
\newlabel{fig:pies}{{4.6}{103}{Pie Charts\relax }{figure.caption.1110}{}}
\@writefile{lof}{\contentsline {figure}{\numberline {4.7}{\ignorespaces Price Bar and Bubble Charts\relax }}{104}{figure.caption.1111}}
\newlabel{fig:price}{{4.7}{104}{Price Bar and Bubble Charts\relax }{figure.caption.1111}{}}
\@writefile{lof}{\contentsline {figure}{\numberline {4.8}{\ignorespaces Faceted Search and Results Table\relax }}{105}{figure.caption.1112}}
\newlabel{fig:results}{{4.8}{105}{Faceted Search and Results Table\relax }{figure.caption.1112}{}}
\@writefile{toc}{\contentsline {subsection}{\numberline {4.3.4}Conclusions}{106}{subsection.1113}}
\@writefile{toc}{\contentsline {section}{\numberline {4.4}Tourpedia Demo}{106}{section.1114}}
\@writefile{toc}{\contentsline {subsection}{\numberline {4.4.1}Origin}{106}{subsection.1115}}
\@writefile{toc}{\contentsline {subsection}{\numberline {4.4.2}Structure and pre-process}{108}{subsection.1116}}
\newlabel{lst:restjsonresult}{{4.5}{108}{PLaces JSON example}{lstlisting.1117}{}}
\@writefile{lol}{\contentsline {lstlisting}{\numberline {4.5}PLaces JSON example}{108}{lstlisting.1117}}
\@writefile{toc}{\contentsline {subsection}{\numberline {4.4.3}Analysis Design}{110}{subsection.1133}}
\@writefile{lof}{\contentsline {figure}{\numberline {4.9}{\ignorespaces Map and Number Widgets\relax }}{110}{figure.caption.1134}}
\newlabel{fig:map}{{4.9}{110}{Map and Number Widgets\relax }{figure.caption.1134}{}}
\@writefile{lof}{\contentsline {figure}{\numberline {4.10}{\ignorespaces Filters\relax }}{110}{figure.caption.1135}}
\newlabel{fig:filters}{{4.10}{110}{Filters\relax }{figure.caption.1135}{}}
\@writefile{lof}{\contentsline {figure}{\numberline {4.11}{\ignorespaces Reviews and Table widgets\relax }}{111}{figure.caption.1136}}
\newlabel{fig:reviews}{{4.11}{111}{Reviews and Table widgets\relax }{figure.caption.1136}{}}
\@writefile{toc}{\contentsline {subsection}{\numberline {4.4.4}Conclusions}{112}{subsection.1137}}
\@writefile{toc}{\contentsline {section}{\numberline {4.5}Summary}{112}{section.1138}}
\@setckpt{5-case-study}{
\setcounter{page}{113}
\setcounter{equation}{0}
\setcounter{enumi}{0}
\setcounter{enumii}{0}
\setcounter{enumiii}{0}
\setcounter{enumiv}{0}
\setcounter{footnote}{6}
\setcounter{mpfootnote}{0}
\setcounter{part}{0}
\setcounter{chapter}{4}
\setcounter{section}{5}
\setcounter{subsection}{0}
\setcounter{subsubsection}{0}
\setcounter{paragraph}{0}
\setcounter{subparagraph}{0}
\setcounter{figure}{11}
\setcounter{table}{1}
\setcounter{parentequation}{0}
\setcounter{cor}{0}
\setcounter{thm}{0}
\setcounter{LT@tables}{1}
\setcounter{LT@chunks}{2}
\setcounter{ContinuedFloat}{0}
\setcounter{KVtest}{0}
\setcounter{subfigure}{0}
\setcounter{subfigure@save}{0}
\setcounter{lofdepth}{1}
\setcounter{subtable}{0}
\setcounter{subtable@save}{0}
\setcounter{lotdepth}{1}
\setcounter{lstnumber}{16}
\setcounter{Item}{0}
\setcounter{Hfootnote}{32}
\setcounter{bookmark@seq@number}{75}
\setcounter{lstlisting}{5}
\setcounter{section@level}{0}
}
