\relax 
\providecommand\hyper@newdestlabel[2]{}
\@writefile{toc}{\contentsline {chapter}{\numberline {5}Evaluation}{105}{chapter.1229}}
\@writefile{lof}{\addvspace {10\p@ }}
\@writefile{lot}{\addvspace {10\p@ }}
\newlabel{chap:Evaluation}{{5}{105}{Evaluation}{chapter.1229}{}}
\@writefile{toc}{\contentsline {section}{\numberline {5.1}Introduction}{107}{section.1230}}
\@writefile{toc}{\contentsline {section}{\numberline {5.2}Sefarad 1.0}{108}{section.1231}}
\@writefile{toc}{\contentsline {subsection}{\numberline {5.2.1}Description}{108}{subsection.1232}}
\@writefile{lof}{\contentsline {figure}{\numberline {5.1}{\ignorespaces Sefarad-1.0 Dashboard\relax }}{108}{figure.caption.1233}}
\newlabel{fig:sefarad101}{{5.1}{108}{Sefarad-1.0 Dashboard\relax }{figure.caption.1233}{}}
\@writefile{lof}{\contentsline {figure}{\numberline {5.2}{\ignorespaces Sefarad-1.0 Query Editor\relax }}{109}{figure.caption.1234}}
\newlabel{fig:sefarad102}{{5.2}{109}{Sefarad-1.0 Query Editor\relax }{figure.caption.1234}{}}
\@writefile{toc}{\contentsline {subsection}{\numberline {5.2.2}Benchmark}{111}{subsection.1235}}
\@writefile{toc}{\contentsline {subsection}{\numberline {5.2.3}Analysis}{111}{subsection.1237}}
\@writefile{toc}{\contentsline {section}{\numberline {5.3}Custom multi-query prototype}{112}{section.1238}}
\@writefile{toc}{\contentsline {subsection}{\numberline {5.3.1}Description}{112}{subsection.1239}}
\@writefile{lof}{\contentsline {figure}{\numberline {5.3}{\ignorespaces Custom multi-query prototype dashboard\relax }}{112}{figure.caption.1240}}
\newlabel{fig:customFilter}{{5.3}{112}{Custom multi-query prototype dashboard\relax }{figure.caption.1240}{}}
\@writefile{lof}{\contentsline {figure}{\numberline {5.4}{\ignorespaces Multi Query Architecture\relax }}{113}{figure.caption.1241}}
\newlabel{fig:customArchitecture}{{5.4}{113}{Multi Query Architecture\relax }{figure.caption.1241}{}}
\@writefile{toc}{\contentsline {subsection}{\numberline {5.3.2}Benchmark}{114}{subsection.1242}}
\@writefile{toc}{\contentsline {subsection}{\numberline {5.3.3}Analysis}{114}{subsection.1244}}
\@writefile{toc}{\contentsline {section}{\numberline {5.4}Bootstrap prototype}{115}{section.1245}}
\@writefile{toc}{\contentsline {subsection}{\numberline {5.4.1}Description}{115}{subsection.1247}}
\@writefile{lof}{\contentsline {figure}{\numberline {5.5}{\ignorespaces Bootstrap Prototype Dashboard\relax }}{115}{figure.caption.1248}}
\newlabel{fig:bootstrapPrototype}{{5.5}{115}{Bootstrap Prototype Dashboard\relax }{figure.caption.1248}{}}
\@writefile{lof}{\contentsline {figure}{\numberline {5.6}{\ignorespaces Bootstrap Prototype Architecture\relax }}{116}{figure.caption.1249}}
\newlabel{fig:bootstrapArchitecture}{{5.6}{116}{Bootstrap Prototype Architecture\relax }{figure.caption.1249}{}}
\@writefile{toc}{\contentsline {subsection}{\numberline {5.4.2}Benchmark}{117}{subsection.1250}}
\@writefile{toc}{\contentsline {subsection}{\numberline {5.4.3}Analysis}{117}{subsection.1252}}
\@writefile{toc}{\contentsline {section}{\numberline {5.5}Crossfilter.js + dc.js prototype}{118}{section.1253}}
\@writefile{toc}{\contentsline {subsection}{\numberline {5.5.1}Description}{118}{subsection.1254}}
\@writefile{lof}{\contentsline {figure}{\numberline {5.7}{\ignorespaces Crossfilter.js + dc.js dashboard\relax }}{118}{figure.caption.1255}}
\newlabel{fig:crossfilterDC}{{5.7}{118}{Crossfilter.js + dc.js dashboard\relax }{figure.caption.1255}{}}
\@writefile{toc}{\contentsline {subsection}{\numberline {5.5.2}Benchmark}{119}{subsection.1257}}
\@writefile{toc}{\contentsline {subsection}{\numberline {5.5.3}Analysis}{119}{subsection.1259}}
\@writefile{toc}{\contentsline {section}{\numberline {5.6}Final Prototype: Web Components}{120}{section.1260}}
\@writefile{toc}{\contentsline {subsection}{\numberline {5.6.1}Description}{120}{subsection.1261}}
\@writefile{toc}{\contentsline {subsection}{\numberline {5.6.2}Benchmark}{120}{subsection.1262}}
\@writefile{toc}{\contentsline {subsection}{\numberline {5.6.3}Analysis}{121}{subsection.1264}}
\@writefile{toc}{\contentsline {section}{\numberline {5.7}Prototype comparison}{122}{section.1265}}
\@writefile{toc}{\contentsline {section}{\numberline {5.8}Summary}{122}{section.1267}}
\@setckpt{5-prototype}{
\setcounter{page}{123}
\setcounter{equation}{0}
\setcounter{enumi}{0}
\setcounter{enumii}{0}
\setcounter{enumiii}{0}
\setcounter{enumiv}{0}
\setcounter{footnote}{2}
\setcounter{mpfootnote}{0}
\setcounter{part}{0}
\setcounter{chapter}{5}
\setcounter{section}{8}
\setcounter{subsection}{0}
\setcounter{subsubsection}{0}
\setcounter{paragraph}{0}
\setcounter{subparagraph}{0}
\setcounter{figure}{7}
\setcounter{table}{0}
\setcounter{parentequation}{0}
\setcounter{cor}{0}
\setcounter{thm}{0}
\setcounter{LT@tables}{1}
\setcounter{LT@chunks}{2}
\setcounter{ContinuedFloat}{0}
\setcounter{KVtest}{0}
\setcounter{subfigure}{0}
\setcounter{subfigure@save}{0}
\setcounter{lofdepth}{1}
\setcounter{subtable}{0}
\setcounter{subtable@save}{0}
\setcounter{lotdepth}{1}
\setcounter{lstnumber}{16}
\setcounter{Item}{0}
\setcounter{Hfootnote}{34}
\setcounter{bookmark@seq@number}{98}
\setcounter{lstlisting}{0}
\setcounter{section@level}{0}
}
