\relax 
\providecommand\hyper@newdestlabel[2]{}
\@writefile{toc}{\contentsline {chapter}{\numberline {3}Sefarad 2.0}{27}{chapter.147}}
\@writefile{lof}{\addvspace {10\p@ }}
\@writefile{lot}{\addvspace {10\p@ }}
\newlabel{chap:sefarad2.0}{{3}{27}{Sefarad 2.0}{chapter.147}{}}
\@writefile{toc}{\contentsline {section}{\numberline {3.1}Introduction}{29}{section.148}}
\@writefile{toc}{\contentsline {section}{\numberline {3.2}Architecture}{29}{section.149}}
\@writefile{lof}{\contentsline {figure}{\numberline {3.1}{\ignorespaces Sefarad 2.0 Architecture\relax }}{30}{figure.caption.150}}
\newlabel{fig:architecture}{{3.1}{30}{Sefarad 2.0 Architecture\relax }{figure.caption.150}{}}
\@writefile{toc}{\contentsline {subsection}{\numberline {3.2.1}Dashboard Architecture}{32}{subsection.151}}
\@writefile{toc}{\contentsline {subsubsection}{\numberline {3.2.1.1}Main module}{32}{subsubsection.152}}
\newlabel{lst:exe}{{3.1}{32}{Execute Query Code}{lstlisting.153}{}}
\@writefile{lol}{\contentsline {lstlisting}{\numberline {3.1}Execute Query Code}{32}{lstlisting.153}}
\newlabel{lst:auth}{{3.2}{33}{Authentication Code}{lstlisting.190}{}}
\@writefile{lol}{\contentsline {lstlisting}{\numberline {3.2}Authentication Code}{33}{lstlisting.190}}
\@writefile{toc}{\contentsline {subsubsection}{\numberline {3.2.1.2}Data pre-processor module}{35}{subsubsection.235}}
\newlabel{lst:auth2}{{3.3}{35}{Pre-processor Code}{lstlisting.236}{}}
\@writefile{lol}{\contentsline {lstlisting}{\numberline {3.3}Pre-processor Code}{35}{lstlisting.236}}
\@writefile{toc}{\contentsline {subsubsection}{\numberline {3.2.1.3}Web components}{37}{subsubsection.270}}
\newlabel{lst:imp}{{3.4}{37}{Web Components Import}{lstlisting.271}{}}
\@writefile{lol}{\contentsline {lstlisting}{\numberline {3.4}Web Components Import}{37}{lstlisting.271}}
\newlabel{lst:ins}{{3.5}{38}{Web Components Insertion}{lstlisting.281}{}}
\@writefile{lol}{\contentsline {lstlisting}{\numberline {3.5}Web Components Insertion}{38}{lstlisting.281}}
\@writefile{toc}{\contentsline {subsubsection}{\numberline {3.2.1.4}Crossfilter-dc}{39}{subsubsection.302}}
\newlabel{lst:cross}{{3.6}{39}{Crossfilter Initialization}{lstlisting.303}{}}
\@writefile{lol}{\contentsline {lstlisting}{\numberline {3.6}Crossfilter Initialization}{39}{lstlisting.303}}
\newlabel{lst:dc}{{3.7}{40}{Dc Initialization}{lstlisting.319}{}}
\@writefile{lol}{\contentsline {lstlisting}{\numberline {3.7}Dc Initialization}{40}{lstlisting.319}}
\@writefile{toc}{\contentsline {subsection}{\numberline {3.2.2}Queries pipeline Architecture}{42}{subsection.342}}
\newlabel{lst:server}{{3.8}{42}{Dart Server Code}{lstlisting.343}{}}
\@writefile{lol}{\contentsline {lstlisting}{\numberline {3.8}Dart Server Code}{42}{lstlisting.343}}
\newlabel{lst:post}{{3.9}{43}{Dart Server Code 2}{lstlisting.381}{}}
\@writefile{lol}{\contentsline {lstlisting}{\numberline {3.9}Dart Server Code 2}{43}{lstlisting.381}}
\newlabel{lst:source}{{3.10}{45}{Datasource definition JSON}{lstlisting.411}{}}
\@writefile{lol}{\contentsline {lstlisting}{\numberline {3.10}Datasource definition JSON}{45}{lstlisting.411}}
\newlabel{lst:datasend}{{3.11}{45}{Datasources Data Sender}{lstlisting.422}{}}
\@writefile{lol}{\contentsline {lstlisting}{\numberline {3.11}Datasources Data Sender}{45}{lstlisting.422}}
\newlabel{lst:querydef}{{3.12}{47}{Query definition JSON}{lstlisting.447}{}}
\@writefile{lol}{\contentsline {lstlisting}{\numberline {3.12}Query definition JSON}{47}{lstlisting.447}}
\newlabel{lst:dsend}{{3.13}{47}{Query Data Sender}{lstlisting.461}{}}
\@writefile{lol}{\contentsline {lstlisting}{\numberline {3.13}Query Data Sender}{47}{lstlisting.461}}
\newlabel{lst:edit}{{3.14}{49}{SPARQL Editor Code}{lstlisting.491}{}}
\@writefile{lol}{\contentsline {lstlisting}{\numberline {3.14}SPARQL Editor Code}{49}{lstlisting.491}}
\@writefile{toc}{\contentsline {section}{\numberline {3.3}Interaction model}{51}{section.522}}
\@writefile{toc}{\contentsline {subsection}{\numberline {3.3.1}Defining a data source}{51}{subsection.523}}
\@writefile{lof}{\contentsline {figure}{\numberline {3.2}{\ignorespaces Add Data Source Web Page\relax }}{51}{figure.caption.524}}
\newlabel{fig:addSource}{{3.2}{51}{Add Data Source Web Page\relax }{figure.caption.524}{}}
\@writefile{toc}{\contentsline {subsection}{\numberline {3.3.2}Writing a query}{52}{subsection.525}}
\@writefile{lof}{\contentsline {figure}{\numberline {3.3}{\ignorespaces Add Query Web Page\relax }}{52}{figure.caption.526}}
\newlabel{fig:addQuery}{{3.3}{52}{Add Query Web Page\relax }{figure.caption.526}{}}
\@writefile{toc}{\contentsline {subsection}{\numberline {3.3.3}Visualising and editing a query}{53}{subsection.527}}
\@writefile{lof}{\contentsline {figure}{\numberline {3.4}{\ignorespaces Dashboard Tabs\relax }}{53}{figure.caption.528}}
\newlabel{fig:tabs}{{3.4}{53}{Dashboard Tabs\relax }{figure.caption.528}{}}
\@writefile{lof}{\contentsline {figure}{\numberline {3.5}{\ignorespaces Query Editor Page\relax }}{54}{figure.caption.529}}
\newlabel{fig:queryEditor}{{3.5}{54}{Query Editor Page\relax }{figure.caption.529}{}}
\@writefile{lof}{\contentsline {figure}{\numberline {3.6}{\ignorespaces Query Editor Page 2\relax }}{54}{figure.caption.530}}
\newlabel{fig:queryEditor2}{{3.6}{54}{Query Editor Page 2\relax }{figure.caption.530}{}}
\@writefile{toc}{\contentsline {section}{\numberline {3.4}Widgets}{56}{section.531}}
\@writefile{toc}{\contentsline {subsection}{\numberline {3.4.1}Common implementation}{56}{subsection.532}}
\newlabel{lst:genericWidget}{{3.15}{57}{Generic Widget Structure}{lstlisting.533}{}}
\@writefile{lol}{\contentsline {lstlisting}{\numberline {3.15}Generic Widget Structure}{57}{lstlisting.533}}
\@writefile{toc}{\contentsline {subsection}{\numberline {3.4.2}Specific implementation}{58}{subsection.560}}
\@writefile{toc}{\contentsline {subsubsection}{\numberline {3.4.2.1}Faceted Search}{58}{subsubsection.561}}
\@writefile{lof}{\contentsline {figure}{\numberline {3.7}{\ignorespaces Faceted Search Widget\relax }}{59}{figure.caption.562}}
\newlabel{fig:searchWidget}{{3.7}{59}{Faceted Search Widget\relax }{figure.caption.562}{}}
\newlabel{lst:fac}{{3.16}{59}{Faceted Search Code}{lstlisting.563}{}}
\@writefile{lol}{\contentsline {lstlisting}{\numberline {3.16}Faceted Search Code}{59}{lstlisting.563}}
\citation{stevenSkelston}
\@writefile{toc}{\contentsline {subsubsection}{\numberline {3.4.2.2}Results Table}{61}{subsubsection.599}}
\@writefile{lof}{\contentsline {figure}{\numberline {3.8}{\ignorespaces Results Table Widget\relax }}{61}{figure.caption.600}}
\newlabel{fig:resultsWidget}{{3.8}{61}{Results Table Widget\relax }{figure.caption.600}{}}
\newlabel{lst:tab}{{3.17}{62}{Results Table Modifications Code}{lstlisting.601}{}}
\@writefile{lol}{\contentsline {lstlisting}{\numberline {3.17}Results Table Modifications Code}{62}{lstlisting.601}}
\@writefile{toc}{\contentsline {subsubsection}{\numberline {3.4.2.3}Pie Chart}{63}{subsubsection.616}}
\@writefile{lof}{\contentsline {figure}{\numberline {3.9}{\ignorespaces Pie Chart Widget\relax }}{63}{figure.caption.617}}
\newlabel{fig:pieChartWidget}{{3.9}{63}{Pie Chart Widget\relax }{figure.caption.617}{}}
\newlabel{lst:piec}{{3.18}{63}{Pie Chart Code}{lstlisting.618}{}}
\@writefile{lol}{\contentsline {lstlisting}{\numberline {3.18}Pie Chart Code}{63}{lstlisting.618}}
\@writefile{toc}{\contentsline {subsubsection}{\numberline {3.4.2.4}Bar Chart}{65}{subsubsection.633}}
\@writefile{lof}{\contentsline {figure}{\numberline {3.10}{\ignorespaces Bar Chart Widget\relax }}{65}{figure.caption.634}}
\newlabel{fig:barChartWidget}{{3.10}{65}{Bar Chart Widget\relax }{figure.caption.634}{}}
\newlabel{lst:barChartWidget}{{3.19}{66}{Bar Chart Code}{lstlisting.635}{}}
\@writefile{lol}{\contentsline {lstlisting}{\numberline {3.19}Bar Chart Code}{66}{lstlisting.635}}
\@writefile{toc}{\contentsline {subsubsection}{\numberline {3.4.2.5}Bubble Chart}{66}{subsubsection.658}}
\@writefile{lof}{\contentsline {figure}{\numberline {3.11}{\ignorespaces Bubble Chart Widget\relax }}{67}{figure.caption.659}}
\newlabel{fig:bubbleChartWidget}{{3.11}{67}{Bubble Chart Widget\relax }{figure.caption.659}{}}
\newlabel{lst:bubbleChartWidget}{{3.20}{67}{Bubble Chart Code}{lstlisting.660}{}}
\@writefile{lol}{\contentsline {lstlisting}{\numberline {3.20}Bubble Chart Code}{67}{lstlisting.660}}
\@writefile{toc}{\contentsline {subsubsection}{\numberline {3.4.2.6}Number Chart}{68}{subsubsection.706}}
\@writefile{lof}{\contentsline {figure}{\numberline {3.12}{\ignorespaces Number Chart Widget, skin 1\relax }}{69}{figure.caption.707}}
\newlabel{fig:numberChartWidget1}{{3.12}{69}{Number Chart Widget, skin 1\relax }{figure.caption.707}{}}
\@writefile{lof}{\contentsline {figure}{\numberline {3.13}{\ignorespaces Number Chart Widget, skin 2\relax }}{70}{figure.caption.708}}
\newlabel{fig:numberChartWidget2}{{3.13}{70}{Number Chart Widget, skin 2\relax }{figure.caption.708}{}}
\newlabel{lst:NumberChartWidget}{{3.21}{70}{Number Chart Code}{lstlisting.709}{}}
\@writefile{lol}{\contentsline {lstlisting}{\numberline {3.21}Number Chart Code}{70}{lstlisting.709}}
\@writefile{toc}{\contentsline {subsubsection}{\numberline {3.4.2.7}Reviews (Custom Widget example)}{72}{subsubsection.774}}
\@writefile{lof}{\contentsline {figure}{\numberline {3.14}{\ignorespaces Reviews Custom Widget\relax }}{72}{figure.caption.775}}
\newlabel{fig:reviewsWidget}{{3.14}{72}{Reviews Custom Widget\relax }{figure.caption.775}{}}
\newlabel{lst:reviewsWidget}{{3.22}{73}{Reviews Widget Code}{lstlisting.776}{}}
\@writefile{lol}{\contentsline {lstlisting}{\numberline {3.22}Reviews Widget Code}{73}{lstlisting.776}}
\@writefile{toc}{\contentsline {subsubsection}{\numberline {3.4.2.8}Map}{74}{subsubsection.820}}
\@writefile{lof}{\contentsline {figure}{\numberline {3.15}{\ignorespaces Polygons Map Widget\relax }}{74}{figure.caption.821}}
\newlabel{fig:polyMapWidget}{{3.15}{74}{Polygons Map Widget\relax }{figure.caption.821}{}}
\newlabel{lst:mapWidget1}{{3.23}{76}{Map Widget onClick Code}{lstlisting.822}{}}
\@writefile{lol}{\contentsline {lstlisting}{\numberline {3.23}Map Widget onClick Code}{76}{lstlisting.822}}
\newlabel{lst:mapWidget2}{{3.24}{77}{Map Widget Styling Code}{lstlisting.841}{}}
\@writefile{lol}{\contentsline {lstlisting}{\numberline {3.24}Map Widget Styling Code}{77}{lstlisting.841}}
\newlabel{lst:mapWidget3}{{3.25}{78}{Map Widget Pop-up Code}{lstlisting.875}{}}
\@writefile{lol}{\contentsline {lstlisting}{\numberline {3.25}Map Widget Pop-up Code}{78}{lstlisting.875}}
\@writefile{lof}{\contentsline {figure}{\numberline {3.16}{\ignorespaces Marker Map Widget\relax }}{79}{figure.caption.888}}
\newlabel{fig:markerMapWidget}{{3.16}{79}{Marker Map Widget\relax }{figure.caption.888}{}}
\@writefile{toc}{\contentsline {section}{\numberline {3.5}How to build a dashboard}{80}{section.889}}
\newlabel{lst:importZone}{{3.26}{80}{Web Components Import Zone}{lstlisting.890}{}}
\@writefile{lol}{\contentsline {lstlisting}{\numberline {3.26}Web Components Import Zone}{80}{lstlisting.890}}
\@writefile{lof}{\contentsline {figure}{\numberline {3.17}{\ignorespaces Navigation Menu\relax }}{81}{figure.caption.903}}
\newlabel{fig:markerMapWidget}{{3.17}{81}{Navigation Menu\relax }{figure.caption.903}{}}
\@writefile{toc}{\contentsline {section}{\numberline {3.6}Summary}{81}{section.904}}
\@setckpt{5-sefarad}{
\setcounter{page}{83}
\setcounter{equation}{0}
\setcounter{enumi}{0}
\setcounter{enumii}{0}
\setcounter{enumiii}{0}
\setcounter{enumiv}{0}
\setcounter{footnote}{2}
\setcounter{mpfootnote}{0}
\setcounter{part}{0}
\setcounter{chapter}{3}
\setcounter{section}{6}
\setcounter{subsection}{0}
\setcounter{subsubsection}{8}
\setcounter{paragraph}{0}
\setcounter{subparagraph}{0}
\setcounter{figure}{17}
\setcounter{table}{0}
\setcounter{parentequation}{0}
\setcounter{cor}{0}
\setcounter{thm}{0}
\setcounter{LT@tables}{0}
\setcounter{LT@chunks}{0}
\setcounter{ContinuedFloat}{0}
\setcounter{KVtest}{0}
\setcounter{subfigure}{0}
\setcounter{subfigure@save}{0}
\setcounter{lofdepth}{1}
\setcounter{subtable}{0}
\setcounter{subtable@save}{0}
\setcounter{lotdepth}{1}
\setcounter{lstnumber}{13}
\setcounter{Item}{0}
\setcounter{Hfootnote}{26}
\setcounter{bookmark@seq@number}{57}
\setcounter{lstlisting}{26}
\setcounter{section@level}{0}
}
