\relax 
\providecommand\hyper@newdestlabel[2]{}
\@writefile{toc}{\contentsline {chapter}{\numberline {7}Case Study}{109}{chapter.1019}}
\@writefile{lof}{\addvspace {10\p@ }}
\@writefile{lot}{\addvspace {10\p@ }}
\newlabel{chap:casestudy}{{7}{109}{Case Study}{chapter.1019}{}}
\@writefile{toc}{\contentsline {section}{\numberline {7.1}Introduction}{111}{section.1020}}
\@writefile{toc}{\contentsline {section}{\numberline {7.2}European universities}{112}{section.1024}}
\newlabel{sec:universities}{{7.2}{112}{European universities}{section.1024}{}}
\@writefile{toc}{\contentsline {subsection}{\numberline {7.2.1}Query and retrieve the data: SPARQL}{112}{subsection.1025}}
\newlabel{lst:universitiesquery}{{7.1}{112}{European universities SPARQL}{lstlisting.1027}{}}
\@writefile{lol}{\contentsline {lstlisting}{\numberline {7.1}European universities SPARQL}{112}{lstlisting.1027}}
\newlabel{lst:jsonresult}{{7.2}{113}{Universities results JSON example}{lstlisting.1049}{}}
\@writefile{lol}{\contentsline {lstlisting}{\numberline {7.2}Universities results JSON example}{113}{lstlisting.1049}}
\@writefile{toc}{\contentsline {subsection}{\numberline {7.2.2}Showing the data: results table}{114}{subsection.1077}}
\@writefile{lof}{\contentsline {figure}{\numberline {7.1}{\ignorespaces Results Widget with universities\relax }}{114}{figure.caption.1078}}
\newlabel{fig:universitiestable}{{7.1}{114}{Results Widget with universities\relax }{figure.caption.1078}{}}
\@writefile{lof}{\contentsline {figure}{\numberline {7.2}{\ignorespaces American University of Rome DBpedia webpage\relax }}{115}{figure.caption.1079}}
\newlabel{fig:universitiestable}{{7.2}{115}{American University of Rome DBpedia webpage\relax }{figure.caption.1079}{}}
\@writefile{toc}{\contentsline {subsection}{\numberline {7.2.3}Geographic representation: Openlayers map}{115}{subsection.1080}}
\@writefile{lof}{\contentsline {figure}{\numberline {7.3}{\ignorespaces Universities in Spain and Italy\relax }}{115}{figure.caption.1081}}
\newlabel{fig:universitiesmap}{{7.3}{115}{Universities in Spain and Italy\relax }{figure.caption.1081}{}}
\@writefile{toc}{\contentsline {subsection}{\numberline {7.2.4}Filtering technologies}{116}{subsection.1082}}
\@writefile{lof}{\contentsline {figure}{\numberline {7.4}{\ignorespaces Keyword search example\relax }}{116}{figure.caption.1083}}
\newlabel{fig:universitieskeyword}{{7.4}{116}{Keyword search example\relax }{figure.caption.1083}{}}
\@writefile{lof}{\contentsline {figure}{\numberline {7.5}{\ignorespaces Universities Demo Layout\relax }}{116}{figure.caption.1084}}
\newlabel{fig:universitieslayout}{{7.5}{116}{Universities Demo Layout\relax }{figure.caption.1084}{}}
\@writefile{toc}{\contentsline {section}{\numberline {7.3}Restaurants and Districts in Madrid}{117}{section.1085}}
\newlabel{sec:restaurants}{{7.3}{117}{Restaurants and Districts in Madrid}{section.1085}{}}
\@writefile{toc}{\contentsline {subsection}{\numberline {7.3.1}Download and process the information}{117}{subsection.1088}}
\@writefile{lof}{\contentsline {figure}{\numberline {7.6}{\ignorespaces Processing restaurants data\relax }}{117}{figure.caption.1091}}
\newlabel{fig:universitieslayout}{{7.6}{117}{Processing restaurants data\relax }{figure.caption.1091}{}}
\@writefile{toc}{\contentsline {subsection}{\numberline {7.3.2}SPARQL and Fuseki}{118}{subsection.1092}}
\newlabel{lst:restjsonresult}{{7.3}{118}{Restaurants results JSON example}{lstlisting.1093}{}}
\@writefile{lol}{\contentsline {lstlisting}{\numberline {7.3}Restaurants results JSON example}{118}{lstlisting.1093}}
\newlabel{lst:universitiesquery}{{7.4}{120}{European universities SPARQL}{lstlisting.1159}{}}
\@writefile{lol}{\contentsline {lstlisting}{\numberline {7.4}European universities SPARQL}{120}{lstlisting.1159}}
\@writefile{toc}{\contentsline {subsection}{\numberline {7.3.3}Faceted search}{121}{subsection.1193}}
\@writefile{lof}{\contentsline {figure}{\numberline {7.7}{\ignorespaces Linear layout\relax }}{121}{figure.caption.1194}}
\newlabel{fig:linearlayoutrestaurants}{{7.7}{121}{Linear layout\relax }{figure.caption.1194}{}}
\@writefile{lof}{\contentsline {figure}{\numberline {7.8}{\ignorespaces Accordion layout\relax }}{121}{figure.caption.1195}}
\newlabel{fig:accordionlayoutrestaurants}{{7.8}{121}{Accordion layout\relax }{figure.caption.1195}{}}
\@writefile{toc}{\contentsline {subsection}{\numberline {7.3.4}Openlayers and GeoJSON}{122}{subsection.1196}}
\newlabel{lst:restjsonresult}{{7.5}{122}{Restaurants results JSON example}{lstlisting.1198}{}}
\@writefile{lol}{\contentsline {lstlisting}{\numberline {7.5}Restaurants results JSON example}{122}{lstlisting.1198}}
\@writefile{toc}{\contentsline {section}{\numberline {7.4}Slovakian dataset}{123}{section.1221}}
\newlabel{sec:slovakian}{{7.4}{123}{Slovakian dataset}{section.1221}{}}
\@writefile{toc}{\contentsline {subsection}{\numberline {7.4.1}Protected sites dataset}{123}{subsection.1224}}
\@writefile{lof}{\contentsline {figure}{\numberline {7.9}{\ignorespaces Protected sites tables and view\relax }}{124}{figure.caption.1226}}
\newlabel{fig:slovakiascheme}{{7.9}{124}{Protected sites tables and view\relax }{figure.caption.1226}{}}
\gdef \LT@i {\LT@entry 
    {1}{211.96927pt}\LT@entry 
    {1}{126.21101pt}\LT@entry 
    {1}{97.75826pt}}
\@writefile{lot}{\contentsline {table}{\numberline {7.1}{\ignorespaces Data INSPIRE designation}}{127}{table.1228}}
\newlabel{tab:slovakiantable}{{7.1}{127}{Data INSPIRE designation}{table.1228}{}}
\@writefile{toc}{\contentsline {subsection}{\numberline {7.4.2}SPARQL Query and results data}{128}{subsection.1229}}
\newlabel{lst:slovakiaquery}{{7.6}{128}{Slovakian Demo SPARQL}{lstlisting.1230}{}}
\@writefile{lol}{\contentsline {lstlisting}{\numberline {7.6}Slovakian Demo SPARQL}{128}{lstlisting.1230}}
\newlabel{lst:slovakiajsonresult}{{7.7}{129}{Slovakia results JSON example}{lstlisting.1256}{}}
\@writefile{lol}{\contentsline {lstlisting}{\numberline {7.7}Slovakia results JSON example}{129}{lstlisting.1256}}
\@writefile{toc}{\contentsline {subsection}{\numberline {7.4.3}OpenStreet Map: GeoJSON representation}{130}{subsection.1312}}
\newlabel{lst:slovakiafeature}{{7.8}{131}{Slovakian feature example}{lstlisting.1313}{}}
\@writefile{lol}{\contentsline {lstlisting}{\numberline {7.8}Slovakian feature example}{131}{lstlisting.1313}}
\@writefile{lof}{\contentsline {figure}{\numberline {7.10}{\ignorespaces Protected sites map\relax }}{131}{figure.caption.1331}}
\newlabel{fig:slovakiamap}{{7.10}{131}{Protected sites map\relax }{figure.caption.1331}{}}
\@writefile{toc}{\contentsline {section}{\numberline {7.5}SmartOpenData parcels dataset}{132}{section.1332}}
\newlabel{sec:geoserverdemo}{{7.5}{132}{SmartOpenData parcels dataset}{section.1332}{}}
\@writefile{lof}{\contentsline {figure}{\numberline {7.11}{\ignorespaces Dataset scheme\relax }}{132}{figure.caption.1334}}
\newlabel{fig:parcelsdatascheme}{{7.11}{132}{Dataset scheme\relax }{figure.caption.1334}{}}
\@writefile{toc}{\contentsline {subsection}{\numberline {7.5.1}Parcels data scheme}{133}{subsection.1335}}
\@writefile{lof}{\contentsline {figure}{\numberline {7.12}{\ignorespaces Feature Types Details\relax }}{133}{figure.caption.1336}}
\newlabel{fig:featuretypes}{{7.12}{133}{Feature Types Details\relax }{figure.caption.1336}{}}
\@writefile{toc}{\contentsline {subsection}{\numberline {7.5.2}GeoServer and Openlayers}{134}{subsection.1337}}
\newlabel{lst:parcelsquery}{{7.9}{134}{SMOData Dataset SPARQL query}{lstlisting.1338}{}}
\@writefile{lol}{\contentsline {lstlisting}{\numberline {7.9}SMOData Dataset SPARQL query}{134}{lstlisting.1338}}
\@writefile{lof}{\contentsline {figure}{\numberline {7.13}{\ignorespaces Openlayers map\relax }}{134}{figure.caption.1349}}
\newlabel{fig:smodmap}{{7.13}{134}{Openlayers map\relax }{figure.caption.1349}{}}
\@writefile{toc}{\contentsline {subsection}{\numberline {7.5.3}Geo-filtering: ECQL}{135}{subsection.1350}}
\@writefile{lof}{\contentsline {figure}{\numberline {7.14}{\ignorespaces SmartOpenData layout\relax }}{135}{figure.caption.1351}}
\newlabel{fig:smod}{{7.14}{135}{SmartOpenData layout\relax }{figure.caption.1351}{}}
\@setckpt{5-use-case}{
\setcounter{page}{136}
\setcounter{equation}{0}
\setcounter{enumi}{4}
\setcounter{enumii}{0}
\setcounter{enumiii}{0}
\setcounter{enumiv}{0}
\setcounter{footnote}{14}
\setcounter{mpfootnote}{0}
\setcounter{part}{0}
\setcounter{chapter}{7}
\setcounter{section}{5}
\setcounter{subsection}{3}
\setcounter{subsubsection}{0}
\setcounter{paragraph}{0}
\setcounter{subparagraph}{0}
\setcounter{figure}{14}
\setcounter{table}{1}
\setcounter{parentequation}{0}
\setcounter{cor}{0}
\setcounter{thm}{0}
\setcounter{LT@tables}{1}
\setcounter{LT@chunks}{2}
\setcounter{ContinuedFloat}{0}
\setcounter{KVtest}{0}
\setcounter{subfigure}{0}
\setcounter{subfigure@save}{0}
\setcounter{lofdepth}{1}
\setcounter{subtable}{0}
\setcounter{subtable@save}{0}
\setcounter{lotdepth}{1}
\setcounter{lstnumber}{11}
\setcounter{Item}{4}
\setcounter{Hfootnote}{65}
\setcounter{bookmark@seq@number}{118}
\setcounter{lstlisting}{9}
\setcounter{section@level}{0}
}
