\relax 
\providecommand\hyper@newdestlabel[2]{}
\@writefile{toc}{\contentsline {chapter}{\numberline {4}Sefarad 2.0}{37}{chapter.171}}
\@writefile{lof}{\addvspace {10\p@ }}
\@writefile{lot}{\addvspace {10\p@ }}
<<<<<<< HEAD
\newlabel{chap:sefarad2.0}{{4}{37}{Sefarad 2.0}{chapter.171}{}}
\@writefile{toc}{\contentsline {section}{\numberline {4.1}Architecture}{39}{section.172}}
\@writefile{toc}{\contentsline {section}{\numberline {4.2}Interaction model}{39}{section.173}}
\@writefile{toc}{\contentsline {section}{\numberline {4.3}Widgets}{39}{section.174}}
\@writefile{toc}{\contentsline {subsection}{\numberline {4.3.1}Common implementation}{39}{subsection.175}}
\newlabel{lst:genericWidget}{{4.1}{40}{Generic Widget Structure}{lstlisting.176}{}}
\@writefile{lol}{\contentsline {lstlisting}{\numberline {4.1}Generic Widget Structure}{40}{lstlisting.176}}
\@writefile{toc}{\contentsline {subsection}{\numberline {4.3.2}Specific implementation}{41}{subsection.208}}
\@writefile{toc}{\contentsline {subsubsection}{\numberline {4.3.2.1}Faceted Search}{41}{subsubsection.209}}
\@writefile{lof}{\contentsline {figure}{\numberline {4.1}{\ignorespaces Faceted Search Widget\relax }}{42}{figure.caption.210}}
\newlabel{fig:searchWidget}{{4.1}{42}{Faceted Search Widget\relax }{figure.caption.210}{}}
\newlabel{lst:genericWidget}{{4.2}{42}{Faceted Search Code}{lstlisting.211}{}}
\@writefile{lol}{\contentsline {lstlisting}{\numberline {4.2}Faceted Search Code}{42}{lstlisting.211}}
\citation{stevenSkelston}
\@writefile{toc}{\contentsline {subsubsection}{\numberline {4.3.2.2}Results Table}{44}{subsubsection.247}}
\@writefile{lof}{\contentsline {figure}{\numberline {4.2}{\ignorespaces Results Table Widget\relax }}{44}{figure.caption.248}}
\newlabel{fig:resultsWidget}{{4.2}{44}{Results Table Widget\relax }{figure.caption.248}{}}
\newlabel{lst:genericWidget}{{4.3}{45}{Results Table Modifications Code}{lstlisting.249}{}}
\@writefile{lol}{\contentsline {lstlisting}{\numberline {4.3}Results Table Modifications Code}{45}{lstlisting.249}}
\@writefile{toc}{\contentsline {subsubsection}{\numberline {4.3.2.3}Pie Chart}{45}{subsubsection.264}}
\@writefile{lof}{\contentsline {figure}{\numberline {4.3}{\ignorespaces Pie Chart Widget\relax }}{46}{figure.caption.265}}
\newlabel{fig:pieChartWidget}{{4.3}{46}{Pie Chart Widget\relax }{figure.caption.265}{}}
\newlabel{lst:genericWidget}{{4.4}{46}{Pie Chart Code}{lstlisting.266}{}}
\@writefile{lol}{\contentsline {lstlisting}{\numberline {4.4}Pie Chart Code}{46}{lstlisting.266}}
\@writefile{toc}{\contentsline {subsubsection}{\numberline {4.3.2.4}Bar Chart}{47}{subsubsection.281}}
\@writefile{lof}{\contentsline {figure}{\numberline {4.4}{\ignorespaces Bar Chart Widget\relax }}{47}{figure.caption.282}}
\newlabel{fig:barChartWidget}{{4.4}{47}{Bar Chart Widget\relax }{figure.caption.282}{}}
\newlabel{lst:barChartWidget}{{4.5}{48}{Bar Chart Code}{lstlisting.283}{}}
\@writefile{lol}{\contentsline {lstlisting}{\numberline {4.5}Bar Chart Code}{48}{lstlisting.283}}
\@writefile{toc}{\contentsline {subsubsection}{\numberline {4.3.2.5}Bubble Chart}{48}{subsubsection.306}}
\@writefile{lof}{\contentsline {figure}{\numberline {4.5}{\ignorespaces Bubble Chart Widget\relax }}{49}{figure.caption.307}}
\newlabel{fig:bubbleChartWidget}{{4.5}{49}{Bubble Chart Widget\relax }{figure.caption.307}{}}
\newlabel{lst:bubbleChartWidget}{{4.6}{49}{Bubble Chart Code}{lstlisting.308}{}}
\@writefile{lol}{\contentsline {lstlisting}{\numberline {4.6}Bubble Chart Code}{49}{lstlisting.308}}
\@writefile{toc}{\contentsline {subsubsection}{\numberline {4.3.2.6}Number Chart}{50}{subsubsection.349}}
\@writefile{lof}{\contentsline {figure}{\numberline {4.6}{\ignorespaces Number Chart Widget, skin 1\relax }}{51}{figure.caption.350}}
\newlabel{fig:numberChartWidget1}{{4.6}{51}{Number Chart Widget, skin 1\relax }{figure.caption.350}{}}
\@writefile{lof}{\contentsline {figure}{\numberline {4.7}{\ignorespaces Number Chart Widget, skin 2\relax }}{51}{figure.caption.351}}
\newlabel{fig:numberChartWidget2}{{4.7}{51}{Number Chart Widget, skin 2\relax }{figure.caption.351}{}}
\newlabel{lst:NumberChartWidget}{{4.7}{51}{Number Chart Code}{lstlisting.352}{}}
\@writefile{lol}{\contentsline {lstlisting}{\numberline {4.7}Number Chart Code}{51}{lstlisting.352}}
\@writefile{toc}{\contentsline {subsubsection}{\numberline {4.3.2.7}Reviews (Custom Widget example)}{53}{subsubsection.417}}
\@writefile{lof}{\contentsline {figure}{\numberline {4.8}{\ignorespaces Reviews Custom Widget\relax }}{54}{figure.caption.418}}
\newlabel{fig:reviewsWidget}{{4.8}{54}{Reviews Custom Widget\relax }{figure.caption.418}{}}
\newlabel{lst:reviewsWidget}{{4.8}{54}{Reviews Widget Code}{lstlisting.419}{}}
\@writefile{lol}{\contentsline {lstlisting}{\numberline {4.8}Reviews Widget Code}{54}{lstlisting.419}}
\@writefile{toc}{\contentsline {subsubsection}{\numberline {4.3.2.8}Map}{55}{subsubsection.463}}
\@writefile{lof}{\contentsline {figure}{\numberline {4.9}{\ignorespaces Polygons Map Widget\relax }}{56}{figure.caption.464}}
\newlabel{fig:polyMapWidget}{{4.9}{56}{Polygons Map Widget\relax }{figure.caption.464}{}}
\newlabel{lst:mapWidget1}{{4.9}{56}{Map Widget onClick Code}{lstlisting.465}{}}
\@writefile{lol}{\contentsline {lstlisting}{\numberline {4.9}Map Widget onClick Code}{56}{lstlisting.465}}
\newlabel{lst:mapWidget2}{{4.10}{57}{Map Widget Styling Code}{lstlisting.485}{}}
\@writefile{lol}{\contentsline {lstlisting}{\numberline {4.10}Map Widget Styling Code}{57}{lstlisting.485}}
\newlabel{lst:mapWidget3}{{4.11}{58}{Map Widget Pop-up Code}{lstlisting.524}{}}
\@writefile{lol}{\contentsline {lstlisting}{\numberline {4.11}Map Widget Pop-up Code}{58}{lstlisting.524}}
\@writefile{lof}{\contentsline {figure}{\numberline {4.10}{\ignorespaces Marker Map Widget\relax }}{59}{figure.caption.537}}
\newlabel{fig:markerMapWidget}{{4.10}{59}{Marker Map Widget\relax }{figure.caption.537}{}}
\@writefile{toc}{\contentsline {section}{\numberline {4.4}How to build a dashboard}{59}{section.538}}
=======
\newlabel{chap:widgets}{{4}{37}{Widgets}{chapter.170}{}}
\@writefile{toc}{\contentsline {section}{\numberline {4.1}Common implementation}{39}{section.171}}
\newlabel{lst:genericWidget}{{4.1}{40}{Generic Widget Structure}{lstlisting.172}{}}
\@writefile{lol}{\contentsline {lstlisting}{\numberline {4.1}Generic Widget Structure}{40}{lstlisting.172}}
\@writefile{toc}{\contentsline {section}{\numberline {4.2}Specific implementation}{41}{section.199}}
\@writefile{toc}{\contentsline {subsection}{\numberline {4.2.1}Faceted Search}{41}{subsection.200}}
\@writefile{lof}{\contentsline {figure}{\numberline {4.1}{\ignorespaces Faceted Search Widget\relax }}{41}{figure.caption.201}}
\newlabel{fig:searchWidget}{{4.1}{41}{Faceted Search Widget\relax }{figure.caption.201}{}}
\newlabel{lst:genericWidget}{{4.2}{42}{Faceted Search Code}{lstlisting.202}{}}
\@writefile{lol}{\contentsline {lstlisting}{\numberline {4.2}Faceted Search Code}{42}{lstlisting.202}}
\citation{stevenSkelston}
\@writefile{toc}{\contentsline {subsection}{\numberline {4.2.2}Results Table}{43}{subsection.238}}
\@writefile{lof}{\contentsline {figure}{\numberline {4.2}{\ignorespaces Results Table Widget\relax }}{43}{figure.caption.239}}
\newlabel{fig:resultsWidget}{{4.2}{43}{Results Table Widget\relax }{figure.caption.239}{}}
\newlabel{lst:genericWidget}{{4.3}{44}{Results Table Modifications Code}{lstlisting.240}{}}
\@writefile{lol}{\contentsline {lstlisting}{\numberline {4.3}Results Table Modifications Code}{44}{lstlisting.240}}
\@writefile{toc}{\contentsline {subsection}{\numberline {4.2.3}Pie Chart}{45}{subsection.255}}
\@writefile{lof}{\contentsline {figure}{\numberline {4.3}{\ignorespaces Pie Chart Widget\relax }}{45}{figure.caption.256}}
\newlabel{fig:pieChartWidget}{{4.3}{45}{Pie Chart Widget\relax }{figure.caption.256}{}}
\newlabel{lst:genericWidget}{{4.4}{45}{Pie Chart Code}{lstlisting.257}{}}
\@writefile{lol}{\contentsline {lstlisting}{\numberline {4.4}Pie Chart Code}{45}{lstlisting.257}}
\@writefile{toc}{\contentsline {subsection}{\numberline {4.2.4}Bar Chart}{46}{subsection.272}}
\@writefile{lof}{\contentsline {figure}{\numberline {4.4}{\ignorespaces Bar Chart Widget\relax }}{46}{figure.caption.273}}
\newlabel{fig:barChartWidget}{{4.4}{46}{Bar Chart Widget\relax }{figure.caption.273}{}}
\newlabel{lst:barChartWidget}{{4.5}{47}{Bar Chart Code}{lstlisting.274}{}}
\@writefile{lol}{\contentsline {lstlisting}{\numberline {4.5}Bar Chart Code}{47}{lstlisting.274}}
\@writefile{toc}{\contentsline {subsection}{\numberline {4.2.5}Bubble Chart}{48}{subsection.297}}
\@writefile{lof}{\contentsline {figure}{\numberline {4.5}{\ignorespaces Bubble Chart Widget\relax }}{48}{figure.caption.298}}
\newlabel{fig:bubbleChartWidget}{{4.5}{48}{Bubble Chart Widget\relax }{figure.caption.298}{}}
\newlabel{lst:bubbleChartWidget}{{4.6}{49}{Bubble Chart Code}{lstlisting.299}{}}
\@writefile{lol}{\contentsline {lstlisting}{\numberline {4.6}Bubble Chart Code}{49}{lstlisting.299}}
\@writefile{toc}{\contentsline {subsection}{\numberline {4.2.6}Number Chart}{50}{subsection.345}}
\@writefile{lof}{\contentsline {figure}{\numberline {4.6}{\ignorespaces Number Chart Widget, skin 1\relax }}{50}{figure.caption.346}}
\newlabel{fig:numberChartWidget1}{{4.6}{50}{Number Chart Widget, skin 1\relax }{figure.caption.346}{}}
\@writefile{lof}{\contentsline {figure}{\numberline {4.7}{\ignorespaces Number Chart Widget, skin 2\relax }}{51}{figure.caption.347}}
\newlabel{fig:numberChartWidget2}{{4.7}{51}{Number Chart Widget, skin 2\relax }{figure.caption.347}{}}
\newlabel{lst:NumberChartWidget}{{4.7}{51}{Number Chart Code}{lstlisting.348}{}}
\@writefile{lol}{\contentsline {lstlisting}{\numberline {4.7}Number Chart Code}{51}{lstlisting.348}}
\@writefile{toc}{\contentsline {subsection}{\numberline {4.2.7}Reviews (Custom Widget example)}{53}{subsection.413}}
\@writefile{lof}{\contentsline {figure}{\numberline {4.8}{\ignorespaces Reviews Custom Widget\relax }}{53}{figure.caption.414}}
\newlabel{fig:reviewsWidget}{{4.8}{53}{Reviews Custom Widget\relax }{figure.caption.414}{}}
\newlabel{lst:reviewsWidget}{{4.8}{54}{Reviews Widget Code}{lstlisting.415}{}}
\@writefile{lol}{\contentsline {lstlisting}{\numberline {4.8}Reviews Widget Code}{54}{lstlisting.415}}
\@writefile{toc}{\contentsline {subsection}{\numberline {4.2.8}Map}{56}{subsection.459}}
\@writefile{lof}{\contentsline {figure}{\numberline {4.9}{\ignorespaces Polygons Map Widget\relax }}{56}{figure.caption.460}}
\newlabel{fig:polyMapWidget}{{4.9}{56}{Polygons Map Widget\relax }{figure.caption.460}{}}
\newlabel{lst:mapWidget1}{{4.9}{57}{Map Widget onClick Code}{lstlisting.461}{}}
\@writefile{lol}{\contentsline {lstlisting}{\numberline {4.9}Map Widget onClick Code}{57}{lstlisting.461}}
\newlabel{lst:mapWidget2}{{4.10}{58}{Map Widget Styling Code}{lstlisting.480}{}}
\@writefile{lol}{\contentsline {lstlisting}{\numberline {4.10}Map Widget Styling Code}{58}{lstlisting.480}}
\newlabel{lst:mapWidget3}{{4.11}{59}{Map Widget Pop-up Code}{lstlisting.514}{}}
\@writefile{lol}{\contentsline {lstlisting}{\numberline {4.11}Map Widget Pop-up Code}{59}{lstlisting.514}}
\@writefile{lof}{\contentsline {figure}{\numberline {4.10}{\ignorespaces Marker Map Widget\relax }}{60}{figure.caption.527}}
\newlabel{fig:markerMapWidget}{{4.10}{60}{Marker Map Widget\relax }{figure.caption.527}{}}
>>>>>>> 8d49f4d253ecce9f15dcd1b33a19d3882c435aa6
\@setckpt{5-widgets}{
\setcounter{page}{61}
\setcounter{equation}{0}
\setcounter{enumi}{0}
\setcounter{enumii}{0}
\setcounter{enumiii}{0}
\setcounter{enumiv}{0}
\setcounter{footnote}{0}
\setcounter{mpfootnote}{0}
\setcounter{part}{0}
\setcounter{chapter}{4}
\setcounter{section}{4}
\setcounter{subsection}{0}
\setcounter{subsubsection}{8}
\setcounter{paragraph}{0}
\setcounter{subparagraph}{0}
\setcounter{figure}{10}
\setcounter{table}{0}
\setcounter{parentequation}{0}
\setcounter{cor}{0}
\setcounter{thm}{0}
\setcounter{LT@tables}{0}
\setcounter{LT@chunks}{0}
\setcounter{ContinuedFloat}{0}
\setcounter{KVtest}{0}
\setcounter{subfigure}{0}
\setcounter{subfigure@save}{0}
\setcounter{lofdepth}{1}
\setcounter{subtable}{0}
\setcounter{subtable@save}{0}
\setcounter{lotdepth}{1}
\setcounter{lstnumber}{13}
\setcounter{Item}{0}
\setcounter{Hfootnote}{23}
\setcounter{bookmark@seq@number}{59}
\setcounter{lstlisting}{11}
\setcounter{section@level}{0}
}
