\relax 
\providecommand\hyper@newdestlabel[2]{}
\@writefile{toc}{\contentsline {chapter}{\numberline {6}Conclusions and future lines}{123}{chapter.1268}}
\@writefile{lof}{\addvspace {10\p@ }}
\@writefile{lot}{\addvspace {10\p@ }}
\newlabel{chap:conclusions}{{6}{123}{Conclusions and future lines}{chapter.1268}{}}
\@writefile{toc}{\contentsline {section}{\numberline {6.1}Achieved goals}{125}{section.1269}}
\@writefile{toc}{\contentsline {section}{\numberline {6.2}Conclusions}{126}{section.1270}}
\@writefile{toc}{\contentsline {section}{\numberline {6.3}Future work}{127}{section.1272}}
\@setckpt{6-conclusions}{
\setcounter{page}{128}
\setcounter{equation}{0}
\setcounter{enumi}{0}
\setcounter{enumii}{0}
\setcounter{enumiii}{0}
\setcounter{enumiv}{0}
\setcounter{footnote}{3}
\setcounter{mpfootnote}{0}
\setcounter{part}{0}
\setcounter{chapter}{6}
\setcounter{section}{3}
\setcounter{subsection}{0}
\setcounter{subsubsection}{0}
\setcounter{paragraph}{0}
\setcounter{subparagraph}{0}
\setcounter{figure}{0}
\setcounter{table}{0}
\setcounter{parentequation}{0}
\setcounter{cor}{0}
\setcounter{thm}{0}
\setcounter{LT@tables}{1}
\setcounter{LT@chunks}{2}
\setcounter{ContinuedFloat}{0}
\setcounter{KVtest}{0}
\setcounter{subfigure}{0}
\setcounter{subfigure@save}{0}
\setcounter{lofdepth}{1}
\setcounter{subtable}{0}
\setcounter{subtable@save}{0}
\setcounter{lotdepth}{1}
\setcounter{lstnumber}{16}
\setcounter{Item}{0}
\setcounter{Hfootnote}{37}
\setcounter{bookmark@seq@number}{102}
\setcounter{lstlisting}{0}
\setcounter{section@level}{0}
}
