\relax 
\providecommand\hyper@newdestlabel[2]{}
\@writefile{toc}{\contentsline {chapter}{\numberline {A}How to build a dashboard}{129}{appendix.1275}}
\@writefile{lof}{\addvspace {10\p@ }}
\@writefile{lot}{\addvspace {10\p@ }}
\newlabel{apdx:buildADashboard}{{A}{129}{How to build a dashboard}{appendix.1275}{}}
\@writefile{toc}{\contentsline {section}{\numberline {A.1}Design}{131}{section.1276}}
\newlabel{lst:importZone}{{A.1}{131}{Web Components Import Zone}{lstlisting.1277}{}}
\@writefile{lol}{\contentsline {lstlisting}{\numberline {A.1}Web Components Import Zone}{131}{lstlisting.1277}}
\@writefile{toc}{\contentsline {section}{\numberline {A.2}Widget Definition Example}{132}{section.1290}}
\@writefile{lof}{\contentsline {figure}{\numberline {A.1}{\ignorespaces Navigation Menu\relax }}{132}{figure.caption.1291}}
\newlabel{fig:emptyF}{{A.1}{132}{Navigation Menu\relax }{figure.caption.1291}{}}
\newlabel{lst:webC}{{A.2}{133}{Widget Insertion}{lstlisting.1292}{}}
\@writefile{lol}{\contentsline {lstlisting}{\numberline {A.2}Widget Insertion}{133}{lstlisting.1292}}
\@writefile{lof}{\contentsline {figure}{\numberline {A.2}{\ignorespaces Navigation Menu\relax }}{133}{figure.caption.1309}}
\newlabel{fig:minDash}{{A.2}{133}{Navigation Menu\relax }{figure.caption.1309}{}}
\@writefile{toc}{\contentsline {section}{\numberline {A.3}Pre-processor}{134}{section.1310}}
\@writefile{lof}{\contentsline {figure}{\numberline {A.3}{\ignorespaces Navigation Menu\relax }}{134}{figure.caption.1311}}
\newlabel{fig:markerMapWidget}{{A.3}{134}{Navigation Menu\relax }{figure.caption.1311}{}}
\@setckpt{Appendix-manual}{
\setcounter{page}{135}
\setcounter{equation}{0}
\setcounter{enumi}{0}
\setcounter{enumii}{0}
\setcounter{enumiii}{0}
\setcounter{enumiv}{0}
\setcounter{footnote}{0}
\setcounter{mpfootnote}{0}
\setcounter{part}{0}
\setcounter{chapter}{1}
\setcounter{section}{3}
\setcounter{subsection}{0}
\setcounter{subsubsection}{0}
\setcounter{paragraph}{0}
\setcounter{subparagraph}{0}
\setcounter{figure}{3}
\setcounter{table}{0}
\setcounter{parentequation}{0}
\setcounter{cor}{0}
\setcounter{thm}{0}
\setcounter{LT@tables}{1}
\setcounter{LT@chunks}{2}
\setcounter{ContinuedFloat}{0}
\setcounter{KVtest}{0}
\setcounter{subfigure}{0}
\setcounter{subfigure@save}{0}
\setcounter{lofdepth}{1}
\setcounter{subtable}{0}
\setcounter{subtable@save}{0}
\setcounter{lotdepth}{1}
\setcounter{lstnumber}{17}
\setcounter{Item}{0}
\setcounter{Hfootnote}{37}
\setcounter{bookmark@seq@number}{106}
\setcounter{lstlisting}{2}
\setcounter{section@level}{0}
}
