\relax 
\providecommand\hyper@newdestlabel[2]{}
\@writefile{toc}{\contentsline {chapter}{\numberline {A}Installing and configuring Scrappy}{97}{appendix.440}}
\@writefile{lof}{\addvspace {10\p@ }}
\@writefile{lot}{\addvspace {10\p@ }}
\newlabel{apdx:installscrappy}{{A}{97}{Installing and configuring Scrappy}{appendix.440}{}}
\@writefile{toc}{\contentsline {section}{\numberline {A.1}Installation}{97}{section.441}}
\@writefile{toc}{\contentsline {subsection}{\numberline {A.1.1}Requirements}{97}{subsection.442}}
\@writefile{toc}{\contentsline {subsection}{\numberline {A.1.2}Installation steps}{98}{subsection.444}}
\@writefile{toc}{\contentsline {section}{\numberline {A.2}User manual}{99}{section.456}}
\newlabel{sec:scrappyusermanual}{{A.2}{99}{User manual}{section.456}{}}
\@writefile{toc}{\contentsline {subsection}{\numberline {A.2.1}Command line interface}{100}{subsection.501}}
\@writefile{toc}{\contentsline {subsection}{\numberline {A.2.2}Web admin interface}{100}{subsection.505}}
\@writefile{lof}{\contentsline {figure}{\numberline {A.1}{\ignorespaces Scrappy command line interface\relax }}{101}{figure.caption.504}}
\newlabel{fig:scrappycmd}{{A.1}{101}{Scrappy command line interface\relax }{figure.caption.504}{}}
\@writefile{toc}{\contentsline {subsection}{\numberline {A.2.3}Web service interface}{101}{subsection.512}}
\@writefile{lof}{\contentsline {figure}{\numberline {A.2}{\ignorespaces Web admin interface of Scrappy\relax }}{102}{figure.caption.510}}
\newlabel{fig:scrappyweb}{{A.2}{102}{Web admin interface of Scrappy\relax }{figure.caption.510}{}}
\@writefile{lof}{\contentsline {figure}{\numberline {A.3}{\ignorespaces Extractors Admin Interface\relax }}{102}{figure.caption.511}}
\newlabel{fig:scrappyextractors}{{A.3}{102}{Extractors Admin Interface\relax }{figure.caption.511}{}}
\@writefile{toc}{\contentsline {subsection}{\numberline {A.2.4}Ruby interface}{102}{subsection.517}}
\@writefile{toc}{\contentsline {subsection}{\numberline {A.2.5}Integration with Sesame}{103}{subsection.551}}
\@writefile{toc}{\contentsline {subsection}{\numberline {A.2.6}Extractors}{104}{subsection.565}}
\newlabel{lst:extractorExample}{{A.1}{104}{Extractor example for Yahoo! Pipes}{lstlisting.566}{}}
\@writefile{lol}{\contentsline {lstlisting}{\numberline {A.1}Extractor example for Yahoo! Pipes}{104}{lstlisting.566}}
\@setckpt{Appendix-scrappy}{
\setcounter{page}{112}
\setcounter{equation}{0}
\setcounter{enumi}{0}
\setcounter{enumii}{0}
\setcounter{enumiii}{0}
\setcounter{enumiv}{0}
\setcounter{footnote}{1}
\setcounter{mpfootnote}{0}
\setcounter{part}{0}
\setcounter{chapter}{1}
\setcounter{section}{2}
\setcounter{subsection}{6}
\setcounter{subsubsection}{0}
\setcounter{paragraph}{0}
\setcounter{subparagraph}{0}
\setcounter{figure}{3}
\setcounter{table}{0}
\setcounter{parentequation}{0}
\setcounter{cor}{0}
\setcounter{thm}{0}
\setcounter{ContinuedFloat}{0}
\setcounter{KVtest}{0}
\setcounter{subfigure}{0}
\setcounter{subfigure@save}{2}
\setcounter{lofdepth}{1}
\setcounter{subtable}{0}
\setcounter{subtable@save}{0}
\setcounter{lotdepth}{1}
\setcounter{lstnumber}{263}
\setcounter{Item}{0}
\setcounter{Hfootnote}{30}
\setcounter{bookmark@seq@number}{91}
\setcounter{lstlisting}{1}
\setcounter{section@level}{0}
}
