\relax 
\providecommand\hyper@newdestlabel[2]{}
\providecommand\HyperFirstAtBeginDocument{\AtBeginDocument}
\HyperFirstAtBeginDocument{\ifx\hyper@anchor\@undefined
\global\let\oldcontentsline\contentsline
\gdef\contentsline#1#2#3#4{\oldcontentsline{#1}{#2}{#3}}
\global\let\oldnewlabel\newlabel
\gdef\newlabel#1#2{\newlabelxx{#1}#2}
\gdef\newlabelxx#1#2#3#4#5#6{\oldnewlabel{#1}{{#2}{#3}}}
\AtEndDocument{\ifx\hyper@anchor\@undefined
\let\contentsline\oldcontentsline
\let\newlabel\oldnewlabel
\fi}
\fi}
\global\let\hyper@last\relax 
\gdef\HyperFirstAtBeginDocument#1{#1}
\providecommand\HyField@AuxAddToFields[1]{}
\providecommand\HyField@AuxAddToCoFields[2]{}
\@input{0-preamble.aux}
\reset@newl@bel
\@input{A-resumen.aux}
\@input{B-abstract.aux}
\@input{D-agradecimientos.aux}
\@input{E-contents.aux}
\@input{1-introduction.aux}
\@input{2-enablingtechnologies.aux}
\@input{3-sefarad.aux}
\@input{4-case-study.aux}
\@input{5-prototype.aux}
\@input{6-conclusions.aux}
\@input{Appendix-manual.aux}
\bibstyle{ieeetr}
\bibdata{biblio/ref}
\bibcite{semanticweb}{1}
\bibcite{geoLinkedData}{2}
\bibcite{RDF}{3}
\bibcite{INSPIRE}{4}
\bibcite{smartOpenData}{5}
\bibcite{Payola}{6}
\bibcite{ReDash}{7}
\bibcite{webComponents}{8}
\bibcite{crossFilter}{9}
\bibcite{geolinkeddata1}{10}
\bibcite{geolinkeddata2}{11}
\bibcite{geolinkeddata3}{12}
\bibcite{robertobermejo}{13}
\bibcite{ruben2014}{14}
\bibcite{stevenSkelston}{15}
\@writefile{toc}{\contentsline {chapter}{Bibliography}{135}{section*.1312}}
