\relax 
\citation{semanticweb}
\citation{linkedData}
\citation{geoLinkedData}
\citation{RDF}
\citation{webcomponents}
\citation{webcomponents}
\citation{polymer}
\@writefile{toc}{\contentsline {section}{\numberline {1}Introduction}{1}}
\newlabel{sec:intro}{{1}{1}}
\@writefile{toc}{\contentsline {section}{\numberline {2}Challenges}{1}}
\newlabel{sec:challenges}{{2}{1}}
\@writefile{toc}{\contentsline {section}{\numberline {3}Enabling technologies}{1}}
\newlabel{sec:enablingTech}{{3}{1}}
\@writefile{toc}{\contentsline {subsection}{\numberline {3.1}Web components / Polymer}{1}}
\@writefile{toc}{\contentsline {subsubsection}{\numberline {3.1.1}Custom HTML Elements}{1}}
\citation{envip2013}
\bibstyle{plain}
\bibdata{asaura-pfc}
\bibcite{envip2013}{1}
\@writefile{toc}{\contentsline {subsubsection}{\numberline {3.1.2}HTML Imports}{2}}
\@writefile{toc}{\contentsline {subsubsection}{\numberline {3.1.3}Templates}{2}}
\@writefile{toc}{\contentsline {subsubsection}{\numberline {3.1.4}Shadow DOM}{2}}
\@writefile{toc}{\contentsline {section}{\numberline {4}Context and Requirements. SmartOpenData}{2}}
\newlabel{sec:intro}{{4}{2}}
\bibcite{semanticweb}{2}
\bibcite{linkedData}{3}
\bibcite{webcomponents}{4}
\bibcite{RDF}{5}
\bibcite{geoLinkedData}{6}
\bibcite{polymer}{7}
\@writefile{toc}{\contentsline {section}{\numberline {5}Sefarad-2.0 Architecture}{3}}
\@writefile{toc}{\contentsline {section}{\numberline {6}Example, Case study}{3}}
\newlabel{sec:casestudy}{{6}{3}}
\@writefile{toc}{\contentsline {section}{\numberline {7}Evaluation}{3}}
\newlabel{sec:evaluaiton}{{7}{3}}
\@writefile{toc}{\contentsline {section}{\numberline {8}Conclusions and Future Work}{3}}
\newlabel{sec:conclusions}{{8}{3}}
